<?xml version="1.0"?><svg width="1024" height="768" xmlns="http://www.w3.org/2000/svg">
 <title>plain colored template</title>
 <g>
  <title>Layer 1</title>
  <g id="svg_1">
   <path id="svg_2" d="m211.632996,144.046005c0,0 -15.438995,27.653 0,40.215012c15.76001,12.827988 29.113998,15.570999 53.847992,14.001999c22.618011,-1.435013 35.153992,-9.513 44.154999,-22.61702c3.480011,-5.067001 9.692017,-12.923996 6.463989,-26.922989c0,0 8.614014,4.307999 19.38501,5.384995c10.77002,1.076996 44.158997,1.076996 57.078003,9.692001c12.923004,8.61499 29.079987,22.371002 40.924011,36.494003c11.847992,14.123001 34.466003,42.123993 34.466003,42.123993s-50.620026,40.927002 -54.926025,44.157013c-4.30899,3.230011 -23.694,-16.156006 -26.925995,-17.231995c-3.22998,-1.075012 -18.30899,15.195007 -18.30899,22.674988c0,7.481995 2.154999,22.55899 -3.229004,29.02002c-5.38501,6.461975 -12.925995,20.983978 -12.925995,30.955994c0,9.970001 10.768005,56.280975 14.001984,63.817993c3.229004,7.540009 3.229004,28.006012 6.460999,34.463989c3.231018,6.462006 15.076019,54.971008 18.311005,59.281006c3.22702,4.30603 6.460022,24.503967 6.460022,24.503967s-7.540009,4.574036 -21.540009,9.958008c-23.175995,8.913025 -71.867004,14.73999 -110.931,20.230042c-37.335999,5.25 -106.617996,13.109985 -109.850998,3.415955c-3.231003,-9.690979 -5.384995,-37.690979 -7.537994,-53.844971c-4.981995,-37.348022 -2.020996,-87.604004 0,-77.548004c-2.154999,-10.768982 -6.462006,-43.076996 -6.462006,-57.075989c0,-14.001007 9.693008,-32.310028 0,-38.772003c-9.692001,-6.463013 -12.923996,-39.730988 -8.615997,-48.406006c4.307999,-8.673004 -20.460999,-14.057007 -28,-19.442993c-7.542,-5.384003 -42.001999,-20.462006 -42.001999,-20.462006s25.847,-45.231995 26.925003,-50.619003c1.075996,-5.383987 9.691994,-36.615997 44.154984,-38.771988c34.462021,-2.153 20.462997,3.231995 34.462021,-2.153c14.003998,-5.384018 44.159988,-16.52301 44.159988,-16.52301z" stroke-miterlimit="10" stroke="#E6E6E6" fill="#ff0000"/>
   <path id="svg_3" d="m126.064003,163.617996c1.041,4.917007 1.958,9.859009 2.857994,14.804001c0.774002,4.966003 1.505997,9.938004 2.169006,14.919998c0.662003,4.98201 1.261993,9.975006 1.741989,14.981003c0.472,5.005997 0.856003,10.028 0.886002,15.072006c0.007004,2.515991 -0.082993,5.067993 -0.472992,7.563995l-1.078003,7.462006l-2.291992,14.894989c-0.761002,4.964005 -1.51001,9.929001 -2.167007,14.904007c-0.389999,2.479004 -0.756996,4.960999 -1.067001,7.451996c-0.295998,2.48999 -0.584,4.988007 -0.576996,7.5c-0.133003,-2.511993 0.028999,-5.029999 0.200996,-7.537994c0.186005,-2.509003 0.428001,-5.013 0.694,-7.514008c0.659004,-4.984009 1.409004,-9.95401 2.170006,-14.918991l2.291992,-14.893005c0.686996,-4.981003 1.67601,-9.908005 1.542999,-14.910995c-0.029999,-5.003006 -0.412003,-10.011002 -0.882996,-15.003006c-0.479004,-4.994003 -1.078003,-9.977997 -1.738998,-14.953003c-0.664001,-4.975998 -1.389999,-9.944 -2.169006,-14.903c-0.658997,-4.97699 -1.379997,-9.947998 -2.109993,-14.919998z" fill="#ff0000"/>
   <g id="svg_4">
    <g id="svg_5">
     <path id="svg_6" d="m459.138,231.541c-0.411987,0.238007 -0.843994,0.492004 -1.294006,0.759995" stroke-miterlimit="10" stroke-width="0.75" stroke="#E6E6E6" fill="#ff0000"/>
     <line id="svg_7" y2="232.824" x2="456.973" y1="232.82" x1="456.98" stroke-dasharray="0.0102,0" stroke-miterlimit="10" stroke-width="0.75" stroke="#E6E6E6" fill="#ff0000"/>
     <path id="svg_8" d="m456.972992,232.824005c-10.118988,6.118011 -27.789001,18.212006 -27.789001,18.212006l-23.697998,23.694l-5.321014,3.802002" stroke-dasharray="3.0532,1.0076,0.0102,0" stroke-miterlimit="10" stroke-width="0.75" stroke="#E6E6E6" fill="#ff0000"/>
     <line id="svg_9" y2="279.404" x2="398.945" y1="278.532" x1="400.166" stroke-miterlimit="10" stroke-width="0.75" stroke="#E6E6E6" fill="#ff0000"/>
    </g>
   </g>
   <path id="svg_10" d="m394.078003,167.020996l-2.006989,8.604004l-1.016022,4.298996c-0.345978,1.431 -0.774994,2.837997 -1.152985,4.261002l-4.662018,17.029007l0.01001,-0.042007c-1.114014,6.14801 -2.190002,12.306 -3.226013,18.468002c-1.030975,6.162994 -2.03299,12.332001 -2.903992,18.514008c-0.423981,3.088989 -0.341003,6.188995 -0.565002,9.275986c-0.108978,1.522003 0.445007,3.090012 0.445007,4.655014l0,4.688004l-0.502991,4.687988l-0.408997,4.688995l-0.47702,9.377014l-0.412994,-9.377014l0.321014,-4.688995l0.47998,-4.687988l0,-4.688004c0,-1.560013 -0.55899,-3.123001 -0.446991,-4.721008c0.229004,-3.149002 0.398987,-6.246994 0.824005,-9.350998c0.873993,-6.199005 1.748993,-12.373001 2.781006,-18.541c1.03598,-6.167999 1.911987,-12.326004 3.027985,-18.481003l-0.184998,-0.022995l0,-0.020996l4.79599,-17.029999c0.399017,-1.416 0.812012,-2.846008 1.244995,-4.253006l1.348022,-4.216003l2.688995,-8.427002z" fill="#ff0000"/>
   <g id="svg_11">
    <g id="svg_12">
     <path id="svg_13" d="m389.014008,519.247009c-0.208008,0.153015 -0.666992,0.372009 -1.346985,0.645996" stroke-miterlimit="10" stroke-width="0.75" stroke="#E6E6E6" fill="#ff0000"/>
     <line id="svg_14" y2="520.256" x2="386.734" y1="520.253" x1="386.741" stroke-dasharray="0.01,0" stroke-miterlimit="10" stroke-width="0.75" stroke="#E6E6E6" fill="#ff0000"/>
     <path id="svg_15" d="m386.734009,520.255981c-10.764984,4.028992 -54.372009,16.417969 -63.096985,18.354004c-9.695007,2.153992 -61.387024,8.593994 -71.081009,9.672974c-9.694,1.072998 -75.389999,3.960022 -80.774002,6.288025c-4.331009,1.869995 -14.57901,0.731018 -18.422012,0.214966" stroke-dasharray="3.014,0.9946,0.01,0" stroke-miterlimit="10" stroke-width="0.75" stroke="#E6E6E6" fill="#ff0000"/>
     <path id="svg_16" d="m153.352005,554.783997c-0.929001,-0.125977 -1.480988,-0.213989 -1.480988,-0.213989" stroke-miterlimit="10" stroke-width="0.75" stroke="#E6E6E6" fill="#ff0000"/>
    </g>
   </g>
   <g id="svg_17">
    <g id="svg_18">
     <line id="svg_19" y2="238.72" x2="71.207" y1="238.071" x1="69.855" stroke-miterlimit="10" stroke-width="0.75" stroke="#E6E6E6" fill="#ff0000"/>
     <line id="svg_20" y2="239.153" x2="72.108" y1="239.148" x1="72.099" stroke-miterlimit="10" stroke-width="0.75" stroke="#E6E6E6" fill="#ff0000"/>
     <polyline id="svg_21" points="     72.108,239.153 106.087,255.474 120.022,267.298    " stroke-dasharray="2.9985,0.9895,0,0" stroke-miterlimit="10" stroke-width="0.75" stroke="#E6E6E6" fill="#ff0000"/>
     <line id="svg_22" y2="268.269" x2="121.166" y1="267.298" x1="120.022" stroke-miterlimit="10" stroke-width="0.75" stroke="#E6E6E6" fill="#ff0000"/>
    </g>
   </g>
   <path id="svg_23" d="m198.031998,152.296997c-1.035995,4.169998 -1.567001,8.455002 -1.716995,12.734009c-0.138,4.279999 0.166,8.577988 1.067993,12.743988c0.852005,4.167007 2.318008,8.231003 4.589005,11.826004c2.218994,3.641998 5.389999,6.563004 8.832993,9.076004c6.942001,4.977997 14.906006,8.473999 23.126007,10.787003c4.121002,1.138992 8.337006,1.950989 12.591995,2.310989c2.126999,0.175003 4.264008,0.235001 6.393005,0.146011c2.132996,-0.111008 4.279007,-0.266006 6.41301,-0.447998c8.540985,-0.741013 17.059998,-2.004013 25.311981,-4.309006c4.121002,-1.154999 8.167999,-2.578995 12.050018,-4.365997c1.941986,-0.891006 3.833984,-1.886002 5.668976,-2.977005c1.822021,-1.093002 3.557007,-2.345001 5.216003,-3.686005c3.317017,-2.687988 6.335022,-5.743988 9.105011,-9c2.769989,-3.259995 5.286987,-6.737 7.497009,-10.393997c2.217987,-3.636993 4.277985,-7.455002 5.096985,-11.668991c0.916992,-4.174011 1.397003,-8.491013 1.019012,-12.775009c0.503998,4.274002 0.152008,8.621002 -0.649017,12.852005c-0.704987,4.292999 -2.687988,8.25 -4.819,11.979996c-2.223999,3.707001 -4.779999,7.199997 -7.567993,10.494995c-2.796997,3.28801 -5.843994,6.373001 -9.207001,9.099014c-1.682983,1.357986 -3.44101,2.627991 -5.303986,3.746994c-1.859009,1.104996 -3.776001,2.112 -5.740021,3.013c-3.925995,1.807999 -8.010986,3.244003 -12.164001,4.408997c-8.313995,2.320999 -16.875977,3.589005 -25.448975,4.333008c-2.147003,0.182999 -4.289017,0.33699 -6.446014,0.449997c-2.166,0.091003 -4.332993,0.029999 -6.487,-0.147003c-4.311005,-0.363998 -8.570999,-1.184998 -12.731003,-2.335007c-8.300003,-2.337997 -16.324997,-5.855988 -23.369003,-10.903992c-3.478989,-2.533005 -6.757996,-5.557007 -9.028,-9.285004c-2.316986,-3.686996 -3.838989,-7.832001 -4.692993,-12.076996c-0.807007,-4.263 -0.970001,-8.613007 -0.707001,-12.912994c0.278,-4.300003 0.938995,-8.577011 2.098999,-12.71701z" fill="#ff0000"/>
  </g>
  <g id="svg_24">
   <path id="svg_25" d="m185.093002,592.598022c0,0 -2.802002,5.016968 0,7.296997c2.858994,2.327026 5.281998,2.823975 9.770004,2.539978c4.102997,-0.260986 6.376999,-1.725952 8.010986,-4.104004c0.631012,-0.918945 1.758011,-2.345947 1.172012,-4.884949c0,0 1.561996,0.780945 3.51799,0.97699c1.95401,0.195007 8.012009,0.195007 10.355011,1.757996c2.345001,1.563965 5.276001,4.059998 7.424988,6.622009c2.149002,2.561951 6.253006,7.643982 6.253006,7.643982s-9.184006,7.424988 -9.964996,8.010986c-0.781998,0.585999 -4.299011,-2.930969 -4.886002,-3.127014c-0.585007,-0.194946 -3.320999,2.758057 -3.320999,4.114014c0,1.358032 0.390991,4.093018 -0.585007,5.265015c-0.97699,1.172974 -2.345001,3.807983 -2.345001,5.617981c0,1.807007 1.953003,10.210022 2.540009,11.577026c0.58699,1.367981 0.58699,5.080994 1.172989,6.252014c0.586014,1.17395 2.735001,9.974976 3.322006,10.756958c0.585007,0.781006 1.171997,4.445007 1.171997,4.445007s-1.367996,0.830017 -3.90799,1.807983c-4.205002,1.616028 -13.039001,2.674011 -20.126007,3.670044c-6.774002,0.951965 -19.343994,2.377991 -19.929993,0.617981c-0.587006,-1.757996 -0.978012,-6.836975 -1.368011,-9.768005c-0.903992,-6.776001 -0.365997,-15.89502 0,-14.070007c-0.390991,-1.953003 -1.171997,-7.815979 -1.171997,-10.35498c0,-2.539978 1.759003,-5.861023 0,-7.03302c-1.759003,-1.172974 -2.345001,-7.208984 -1.563004,-8.782959c0.782013,-1.572998 -3.71199,-2.551025 -5.080002,-3.527039s-7.620987,-3.713989 -7.620987,-3.713989s4.688995,-8.205017 4.884995,-9.182983c0.195007,-0.97699 1.759003,-6.644043 8.011002,-7.035034c6.251999,-0.389954 3.712997,0.588013 6.251999,-0.389954c2.539001,-0.979065 8.011002,-2.999023 8.011002,-2.999023z" stroke-miterlimit="10" stroke="#E6E6E6" fill="#3FA9F5"/>
   <path id="svg_26" d="m169.567001,596.14801c0.188995,0.893005 0.354996,1.788025 0.518997,2.687012c0.141006,0.899963 0.274002,1.802979 0.393997,2.70697c0.12001,0.903015 0.229004,1.809021 0.31601,2.717041c0.084991,0.908997 0.154999,1.819946 0.160995,2.734985c0,0.455994 -0.014999,0.919983 -0.085999,1.372009l-0.195999,1.354004l-0.416,2.703003c-0.138,0.899963 -0.274002,1.802002 -0.393005,2.703979c-0.070999,0.450012 -0.138,0.900024 -0.194,1.35199c-0.054001,0.452026 -0.106003,0.903992 -0.104996,1.361023c-0.024002,-0.455994 0.005005,-0.913025 0.037003,-1.368042c0.033997,-0.454956 0.078003,-0.908997 0.125992,-1.362976c0.119003,-0.903992 0.255005,-1.804993 0.393997,-2.70697l0.416,-2.70105c0.125,-0.902954 0.304001,-1.797974 0.280014,-2.704956c-0.006012,-0.907043 -0.075012,-1.81604 -0.161011,-2.723022c-0.08699,-0.906006 -0.194992,-1.809998 -0.315002,-2.713013c-0.120987,-0.903015 -0.251999,-1.804016 -0.393997,-2.703979c-0.119003,-0.903992 -0.25,-1.804993 -0.382996,-2.708008z" fill="#E6E6E6"/>
   <g id="svg_27">
    <g id="svg_28">
     <path id="svg_29" d="m229.998001,608.471985c-0.356995,0.20697 -0.800003,0.47998 -1.278,0.78302" stroke-miterlimit="10" stroke-width="0.75" stroke="#E6E6E6" fill="none"/>
     <line id="svg_30" y2="609.715" x2="228.004" y1="609.708" x1="228.013" stroke-miterlimit="10" stroke-width="0.75" stroke="#E6E6E6" fill="none"/>
     <path id="svg_31" d="m228.003998,609.715027c-1.664993,1.078979 -3.440994,2.294983 -3.440994,2.294983l-4.270996,4.27002" stroke-dasharray="2.5438,0.8395,0,0" stroke-miterlimit="10" stroke-width="0.75" stroke="#E6E6E6" fill="none"/>
     <polyline id="svg_32" points="220.293,616.279 220.264,616.309      219.077,617.156    " stroke-miterlimit="10" stroke-width="0.75" stroke="#E6E6E6" fill="none"/>
    </g>
   </g>
   <path id="svg_33" d="m218.194,596.767029l-0.363998,1.559998l-0.184998,0.781006c-0.062012,0.258972 -0.139999,0.513977 -0.209,0.771973l-0.846008,3.090027l0.001999,-0.007996c-0.201996,1.11499 -0.396988,2.231995 -0.584991,3.351013c-0.186996,1.117004 -0.369003,2.237 -0.527008,3.359009c-0.076996,0.560974 -0.291,1.121948 -0.332001,1.682983c-0.018997,0.276001 -0.147995,0.560974 -0.147995,0.844971l0,0.851013l0.138,0.851013l0.039993,0.851013l-0.028992,1.700989l-0.046005,-1.700989l-0.065994,-0.851013l-0.037003,-0.852051l0,-0.851013c0,-0.282959 0.037003,-0.565979 0.057007,-0.856995c0.041992,-0.570007 0.141998,-1.132996 0.218994,-1.695984c0.158005,-1.124023 0.352005,-2.244019 0.539001,-3.364014c0.188004,-1.117981 0.181,-2.234009 0.384003,-3.35199l-0.199005,-0.003967l0,-0.005005l1.052994,-3.088989c0.073013,-0.257996 0.239014,-0.517029 0.318008,-0.771973l0.291,-0.765015l0.531998,-1.528015z" fill="#E6E6E6"/>
   <g id="svg_34">
    <g id="svg_35">
     <path id="svg_36" d="m217.274002,660.671021c-0.112,0.083008 -0.634003,0.271973 -1.403,0.521973" stroke-miterlimit="10" stroke-width="0.75" stroke="#E6E6E6" fill="none"/>
     <line id="svg_37" y2="661.493" x2="214.926" y1="661.49" x1="214.935" stroke-miterlimit="10" stroke-width="0.75" stroke="#E6E6E6" fill="none"/>
     <path id="svg_38" d="m214.925995,661.492981c-3.095001,0.961975 -8.265991,2.414001 -9.513,2.690002c-1.758987,0.390991 -11.138,1.560974 -12.895996,1.755005s-13.678009,0.718994 -14.654999,1.141968c-0.477005,0.205994 -1.348999,0.210999 -2.117004,0.162048" stroke-dasharray="2.9809,0.9837,0,0" stroke-miterlimit="10" stroke-width="0.75" stroke="#E6E6E6" fill="none"/>
     <path id="svg_39" d="m175.742004,667.242004c-0.804001,-0.052002 -1.492004,-0.161987 -1.492004,-0.161987" stroke-miterlimit="10" stroke-width="0.75" stroke="#E6E6E6" fill="none"/>
    </g>
   </g>
   <g id="svg_40">
    <g id="svg_41">
     <line id="svg_42" y2="610.307" x2="160.722" y1="609.657" x1="159.37" stroke-miterlimit="10" stroke-width="0.75" stroke="#E6E6E6" fill="none"/>
     <line id="svg_43" y2="610.686" x2="161.511" y1="610.682" x1="161.503" stroke-miterlimit="10" stroke-width="0.75" stroke="#E6E6E6" fill="none"/>
     <polyline id="svg_44" points="     161.511,610.686 165.943,612.814 167.535,614.164    " stroke-dasharray="2.6265,0.8667,0,0" stroke-miterlimit="10" stroke-width="0.75" stroke="#E6E6E6" fill="none"/>
     <line id="svg_45" y2="615.135" x2="168.679" y1="614.164" x1="167.535" stroke-miterlimit="10" stroke-width="0.75" stroke="#E6E6E6" fill="none"/>
    </g>
   </g>
   <path id="svg_46" d="m182.625,594.094971c-0.188004,0.757019 -0.283997,1.533997 -0.311005,2.310974c-0.024994,0.776001 0.029999,1.557007 0.194,2.312012c0.154007,0.755005 0.421005,1.492004 0.833008,2.14502c0.401993,0.661011 0.977997,1.190979 1.602997,1.646973c1.259003,0.902039 2.703995,1.537048 4.195007,1.957031c0.747986,0.205994 1.512985,0.354004 2.284988,0.419006c0.386002,0.031006 0.77301,0.041992 1.160004,0.026001c0.388,-0.02002 0.776993,-0.048035 1.164001,-0.080994c1.548996,-0.13501 3.095001,-0.364014 4.591995,-0.782043c0.747009,-0.208984 1.481003,-0.467957 2.186005,-0.790955c0.352997,-0.162048 0.694992,-0.343018 1.028992,-0.541016c0.330002,-0.197998 0.645004,-0.424988 0.946014,-0.66803c0.600998,-0.487976 1.148987,-1.042969 1.651993,-1.633972c0.501999,-0.59198 0.959,-1.221985 1.360001,-1.885986c0.401993,-0.658997 0.776001,-1.353027 0.925003,-2.116028c0.166992,-0.757996 0.253998,-1.541992 0.184998,-2.317993c0.091003,0.775024 0.028,1.564026 -0.117996,2.33197c-0.126999,0.778015 -0.487,1.497009 -0.874008,2.174011c-0.403,0.671021 -0.867996,1.30603 -1.373001,1.903992c-0.506989,0.597046 -1.059998,1.156006 -1.669998,1.650024c-0.304993,0.245972 -0.625,0.47699 -0.962997,0.679016c-0.337006,0.201965 -0.684998,0.383972 -1.041,0.546997c-0.712006,0.326965 -1.453995,0.589966 -2.207001,0.800964c-1.509003,0.421021 -3.061996,0.651001 -4.617996,0.786011c-0.389999,0.03302 -0.777008,0.062012 -1.169006,0.080994c-0.39299,0.017029 -0.785995,0.006042 -1.177002,-0.026001c-0.780991,-0.065002 -1.554993,-0.214966 -2.309998,-0.422974c-1.505997,-0.424988 -2.96199,-1.062988 -4.23999,-1.979004c-0.631012,-0.460022 -1.226013,-1.01001 -1.638,-1.684998c-0.421005,-0.669006 -0.697006,-1.421997 -0.852005,-2.190979c-0.145996,-0.774048 -0.175995,-1.563049 -0.128006,-2.343018c0.050003,-0.779968 0.169998,-1.555969 0.380005,-2.307007z" fill="#E6E6E6"/>
  </g>
  <g id="svg_47">
   <path id="svg_48" d="m263.723999,593.835999c0,0 -2.800995,5.018005 0,7.296997c2.859009,2.327026 5.282013,2.823975 9.769989,2.539978c4.102997,-0.260986 6.377014,-1.725952 8.011017,-4.102966c0.630981,-0.921021 1.757996,-2.346008 1.171997,-4.885986c0,0 1.562012,0.781006 3.518005,0.97699c1.953979,0.195984 8.011993,0.195984 10.35498,1.758972c2.345001,1.562988 5.276001,4.059021 7.425018,6.621033c2.148987,2.562012 6.252991,7.643982 6.252991,7.643982s-9.18399,7.424988 -9.964996,8.010986c-0.782013,0.587036 -4.299011,-2.930969 -4.88501,-3.127014c-0.585999,-0.194946 -3.321991,2.758057 -3.321991,4.114014c0,1.358032 0.390991,4.093994 -0.584991,5.265991c-0.97702,1.171997 -2.345001,3.807007 -2.345001,5.616028c0,1.809021 1.953003,10.210999 2.539978,11.578003c0.586029,1.367981 0.586029,5.080994 1.172028,6.252014c0.585999,1.172974 2.734985,9.974976 3.321991,10.755981c0.585999,0.781006 1.171997,4.445984 1.171997,4.445984s-1.368011,0.830017 -3.90799,1.807007c-4.205017,1.617004 -13.039001,2.674988 -20.126007,3.671021c-6.774017,0.953003 -19.344009,2.377991 -19.930008,0.618958c-0.58699,-1.758972 -0.977997,-6.837952 -1.369003,-9.769958c-0.903992,-6.773987 -0.365997,-15.893005 0,-14.069031c-0.390991,-1.953003 -1.171997,-7.815002 -1.171997,-10.354004c0,-2.540955 1.759003,-5.862 0,-7.034973s-2.345001,-7.208008 -1.562988,-8.781982c0.781998,-1.572998 -3.712006,-2.551025 -5.080002,-3.527039c-1.368011,-0.977966 -7.621002,-3.713013 -7.621002,-3.713013s4.690002,-8.205994 4.884995,-9.184998c0.195007,-0.975952 1.759003,-6.642944 8.012009,-7.032959c6.251999,-0.392029 3.712997,0.585999 6.251999,-0.392029c2.540985,-0.97699 8.011993,-2.997986 8.011993,-2.997986z" stroke-miterlimit="10" stroke="#E6E6E6" fill="#7AC943"/>
   <path id="svg_49" d="m248.199005,597.387024c0.189011,0.893005 0.355011,1.788025 0.519012,2.685974c0.140991,0.901001 0.272995,1.804016 0.393997,2.708008c0.119995,0.903015 0.228989,1.809021 0.315994,2.718018c0.085007,0.90802 0.154999,1.81897 0.160995,2.732971c0,0.457031 -0.014999,0.921021 -0.085999,1.373047l-0.195999,1.354004l-0.416,2.703979c-0.138,0.898987 -0.274002,1.801025 -0.39299,2.703003c-0.070999,0.450012 -0.138,0.898987 -0.194,1.35199c-0.054001,0.452026 -0.106003,0.905029 -0.104004,1.361023c-0.024002,-0.455994 0.005005,-0.913025 0.035995,-1.368042c0.033997,-0.454956 0.078003,-0.908997 0.126007,-1.362c0.118988,-0.904968 0.25499,-1.805969 0.393997,-2.708008l0.416992,-2.700989c0.125,-0.903992 0.304001,-1.797974 0.279999,-2.705994c-0.005997,-0.906982 -0.074997,-1.815979 -0.159988,-2.721985c-0.087006,-0.905029 -0.195999,-1.809998 -0.31601,-2.711975c-0.121002,-0.903015 -0.251999,-1.805054 -0.393997,-2.704041c-0.12001,-0.905029 -0.252014,-1.807007 -0.384003,-2.708984z" fill="#E6E6E6"/>
   <g id="svg_50">
    <g id="svg_51">
     <path id="svg_52" d="m308.628998,609.710999c-0.356995,0.207031 -0.799988,0.479004 -1.277985,0.78302" stroke-miterlimit="10" stroke-width="0.75" stroke="#E6E6E6" fill="none"/>
     <line id="svg_53" y2="610.953" x2="306.635" y1="610.947" x1="306.644" stroke-miterlimit="10" stroke-width="0.75" stroke="#E6E6E6" fill="none"/>
     <path id="svg_54" d="m306.63501,610.953003c-1.665009,1.078979 -3.440002,2.294006 -3.440002,2.294006l-4.270996,4.270996" stroke-dasharray="2.5437,0.8394,0,0" stroke-miterlimit="10" stroke-width="0.75" stroke="#E6E6E6" fill="none"/>
     <polyline id="svg_55" points="298.924,617.518 298.895,617.547      297.708,618.395    " stroke-miterlimit="10" stroke-width="0.75" stroke="#E6E6E6" fill="none"/>
    </g>
   </g>
   <path id="svg_56" d="m296.825012,598.005005l-0.364014,1.559998l-0.18399,0.779968c-0.062988,0.26001 -0.140991,0.516052 -0.208984,0.77301l-0.846008,3.090027l0.001984,-0.007996c-0.201996,1.114014 -0.397003,2.231018 -0.584991,3.351013c-0.187012,1.117981 -0.368988,2.237 -0.527008,3.357971c-0.076996,0.562012 -0.105988,1.124023 -0.147003,1.682983c-0.019989,0.277039 0.036011,0.562012 0.036011,0.847046l0,0.848999l-0.04599,0.850952l-0.052002,0.851013l-0.075012,1.703003l-0.069,-1.703003l0.106995,-0.851013l0.136017,-0.850952l0,-0.848999c0,-0.283997 -0.147003,-0.567017 -0.127014,-0.857056c0.042023,-0.570984 0.049011,-1.133972 0.126007,-1.69696c0.158997,-1.124023 0.306,-2.244995 0.493011,-3.363037c0.187988,-1.119995 0.342987,-2.235962 0.54599,-3.352966l-0.040009,-0.005005l0,-0.005005l0.868011,-3.088989c0.072998,-0.257996 0.147003,-0.518005 0.225983,-0.772034l0.244019,-0.764954l0.487,-1.528015z" fill="#E6E6E6"/>
   <g id="svg_57">
    <g id="svg_58">
     <path id="svg_59" d="m295.906006,661.90802c-0.112,0.083008 -0.634003,0.271973 -1.402985,0.521973" stroke-miterlimit="10" stroke-width="0.75" stroke="#E6E6E6" fill="none"/>
     <line id="svg_60" y2="662.73" x2="293.558" y1="662.728" x1="293.566" stroke-miterlimit="10" stroke-width="0.75" stroke="#E6E6E6" fill="none"/>
     <path id="svg_61" d="m293.558014,662.72998c-3.095001,0.961975 -8.266998,2.414978 -9.513,2.690979c-1.759003,0.390991 -11.138,1.559998 -12.897003,1.755005c-1.759003,0.194031 -13.678009,0.718994 -14.654999,1.142029c-0.47699,0.205994 -1.348999,0.210999 -2.117004,0.161987" stroke-dasharray="2.9809,0.9837,0,0" stroke-miterlimit="10" stroke-width="0.75" stroke="#E6E6E6" fill="none"/>
     <path id="svg_62" d="m254.373993,668.47998c-0.804001,-0.052002 -1.492004,-0.161987 -1.492004,-0.161987" stroke-miterlimit="10" stroke-width="0.75" stroke="#E6E6E6" fill="none"/>
    </g>
   </g>
   <g id="svg_63">
    <g id="svg_64">
     <line id="svg_65" y2="611.544" x2="239.353" y1="610.895" x1="238.001" stroke-miterlimit="10" stroke-width="0.75" stroke="#E6E6E6" fill="none"/>
     <line id="svg_66" y2="611.923" x2="240.143" y1="611.919" x1="240.135" stroke-miterlimit="10" stroke-width="0.75" stroke="#E6E6E6" fill="none"/>
     <polyline id="svg_67" points="     240.143,611.923 244.575,614.052 246.167,615.402    " stroke-dasharray="2.6268,0.8669,0,0" stroke-miterlimit="10" stroke-width="0.75" stroke="#E6E6E6" fill="none"/>
     <line id="svg_68" y2="616.373" x2="247.311" y1="615.402" x1="246.167" stroke-miterlimit="10" stroke-width="0.75" stroke="#E6E6E6" fill="none"/>
    </g>
   </g>
   <path id="svg_69" d="m261.256012,595.333008c-0.187988,0.755981 -0.283997,1.53302 -0.312012,2.310974c-0.024994,0.776001 0.029999,1.55603 0.194,2.312012c0.154022,0.756042 0.421021,1.493042 0.833008,2.14502c0.402008,0.661011 0.977997,1.190002 1.602997,1.646973c1.26001,0.903015 2.70401,1.536011 4.195007,1.955994c0.747986,0.206055 1.513,0.354004 2.285004,0.420044c0.385986,0.031006 0.773987,0.042969 1.160004,0.026001c0.388,-0.020996 0.776978,-0.049011 1.164001,-0.080017c1.548981,-0.135986 3.095001,-0.36499 4.59198,-0.783997c0.747009,-0.208984 1.481018,-0.46698 2.186005,-0.791016c0.352997,-0.161987 0.696014,-0.342957 1.028992,-0.539978c0.331024,-0.197998 0.64502,-0.424988 0.946014,-0.66803c0.60199,-0.487976 1.148987,-1.041992 1.652008,-1.634949c0.501984,-0.590027 0.958984,-1.221008 1.359985,-1.88501c0.403015,-0.660034 0.777008,-1.353027 0.925018,-2.117004c0.166992,-0.757019 0.253998,-1.540039 0.184998,-2.317017c0.091003,0.775024 0.027985,1.564026 -0.118011,2.332031c-0.127991,0.777954 -0.487,1.496948 -0.873993,2.172974c-0.403992,0.672974 -0.868011,1.307007 -1.373993,1.903992c-0.507019,0.596985 -1.060028,1.156006 -1.670013,1.651978c-0.304993,0.245056 -0.625,0.476013 -0.962006,0.679016c-0.337006,0.200012 -0.686005,0.382996 -1.040985,0.546021c-0.712006,0.328003 -1.45401,0.589966 -2.208008,0.799988c-1.507996,0.421997 -3.062012,0.651978 -4.618011,0.788025c-0.388977,0.031006 -0.776978,0.059998 -1.168976,0.079956c-0.393005,0.018005 -0.786011,0.006042 -1.176025,-0.026001c-0.781982,-0.065979 -1.556,-0.216003 -2.309998,-0.42395c-1.505981,-0.424011 -2.962006,-1.062012 -4.23999,-1.979004c-0.631012,-0.459045 -1.226013,-1.007996 -1.638,-1.684998c-0.42099,-0.669006 -0.696991,-1.421021 -0.85199,-2.190002c-0.145996,-0.77301 -0.176025,-1.562012 -0.128021,-2.343018c0.050995,-0.781006 0.17099,-1.55603 0.381012,-2.307007z" fill="#E6E6E6"/>
  </g>
  <g id="svg_70">
   <path id="svg_71" d="m343.593994,593.835999c0,0 -2.800995,5.018005 0,7.296997c2.859009,2.327026 5.281982,2.823975 9.769989,2.539978c4.104004,-0.260986 6.378021,-1.725952 8.011017,-4.102966c0.630981,-0.921021 1.757996,-2.346008 1.173004,-4.885986c0,0 1.561981,0.781006 3.516998,0.97699c1.953979,0.195984 8.011993,0.195984 10.35498,1.758972c2.345001,1.562988 5.276001,4.059021 7.425018,6.621033c2.148987,2.562012 6.252991,7.643982 6.252991,7.643982s-9.18399,7.424988 -9.964996,8.010986c-0.781006,0.587036 -4.299011,-2.930969 -4.88501,-3.127014c-0.585999,-0.194946 -3.321991,2.758057 -3.321991,4.114014c0,1.358032 0.390991,4.093994 -0.585999,5.265991c-0.97702,1.171997 -2.345001,3.807007 -2.345001,5.616028c0,1.809021 1.95401,10.210999 2.540985,11.578003c0.585999,1.367981 0.585999,5.080994 1.171997,6.252014c0.585999,1.172974 2.735016,9.974976 3.322021,10.755981c0.584991,0.781006 1.17099,4.445984 1.17099,4.445984s-1.367004,0.830017 -3.907013,1.807007c-4.204987,1.617004 -13.038971,2.674988 -20.125977,3.671021c-6.77301,0.953003 -19.343994,2.377991 -19.930023,0.618958s-0.97699,-6.837952 -1.367981,-9.769958c-0.903992,-6.773987 -0.367004,-15.893005 0,-14.069031c-0.390991,-1.953003 -1.171997,-7.815002 -1.171997,-10.354004c0,-2.540955 1.757996,-5.862 0,-7.034973s-2.345001,-7.208008 -1.563019,-8.781982c0.782013,-1.572998 -3.711975,-2.551025 -5.080994,-3.527039c-1.367981,-0.977966 -7.619995,-3.713013 -7.619995,-3.713013s4.688995,-8.205994 4.88501,-9.184998c0.194977,-0.975952 1.759003,-6.642944 8.010986,-7.032959c6.252014,-0.392029 3.712006,0.585999 6.252014,-0.392029c2.540985,-0.97699 8.011993,-2.997986 8.011993,-2.997986z" stroke-miterlimit="10" stroke="#E6E6E6" fill="#FF931E"/>
   <path id="svg_72" d="m328.069,597.387024c0.187988,0.893005 0.354004,1.788025 0.518005,2.685974c0.140991,0.901001 0.27298,1.804016 0.393982,2.708008c0.120026,0.903015 0.229004,1.809021 0.31601,2.718018c0.084991,0.90802 0.156006,1.81897 0.161011,2.732971c0.001007,0.457031 -0.015015,0.921021 -0.085022,1.373047l-0.195984,1.354004l-0.416016,2.703979c-0.138,0.898987 -0.27298,1.801025 -0.392975,2.703003c-0.071014,0.450012 -0.138,0.898987 -0.193024,1.35199c-0.053986,0.452026 -0.105988,0.905029 -0.103973,1.361023c-0.025024,-0.455994 0.004974,-0.913025 0.03598,-1.368042c0.033997,-0.454956 0.078003,-0.908997 0.126007,-1.362c0.118988,-0.904968 0.256012,-1.805969 0.393005,-2.708008l0.416992,-2.700989c0.123993,-0.903992 0.303986,-1.797974 0.279999,-2.705994c-0.006012,-0.906982 -0.075012,-1.815979 -0.161011,-2.721985c-0.086975,-0.905029 -0.195984,-1.809998 -0.315979,-2.711975c-0.119995,-0.903015 -0.252014,-1.805054 -0.394012,-2.704041c-0.119995,-0.905029 -0.251007,-1.807007 -0.382996,-2.708984z" fill="#E6E6E6"/>
   <g id="svg_73">
    <g id="svg_74">
     <path id="svg_75" d="m388.498993,609.710999c-0.356995,0.207031 -0.799988,0.479004 -1.278015,0.78302" stroke-miterlimit="10" stroke-width="0.75" stroke="#E6E6E6" fill="none"/>
     <line id="svg_76" y2="610.953" x2="386.505" y1="610.947" x1="386.514" stroke-miterlimit="10" stroke-width="0.75" stroke="#E6E6E6" fill="none"/>
     <path id="svg_77" d="m386.505005,610.953003c-1.665009,1.078979 -3.440002,2.294006 -3.440002,2.294006l-4.270996,4.270996" stroke-dasharray="2.5436,0.8394,0,0" stroke-miterlimit="10" stroke-width="0.75" stroke="#E6E6E6" fill="none"/>
     <polyline id="svg_78" points="378.794,617.518 378.765,617.547      377.578,618.395    " stroke-miterlimit="10" stroke-width="0.75" stroke="#E6E6E6" fill="none"/>
    </g>
   </g>
   <path id="svg_79" d="m376.695007,598.005005l-0.363983,1.559998l-0.185028,0.779968c-0.061981,0.26001 -0.140991,0.516052 -0.208984,0.77301l-0.846008,3.090027l0.002014,-0.007996c-0.203003,1.114014 -0.39801,2.231018 -0.585999,3.351013c-0.187012,1.117981 -0.368011,2.237 -0.527008,3.357971c-0.075989,0.562012 -0.040009,1.124023 -0.080994,1.682983c-0.020996,0.277039 0.100983,0.562012 0.100983,0.847046l0,0.848999l-0.110992,0.850952l-0.083984,0.851013l-0.09201,1.703003l-0.078003,-1.703003l0.167999,-0.851013l0.196991,-0.850952l0,-0.848999c0,-0.283997 -0.211975,-0.567017 -0.190979,-0.857056c0.040985,-0.570984 0.016998,-1.133972 0.093994,-1.69696c0.15799,-1.124023 0.289001,-2.244995 0.47699,-3.363037c0.188019,-1.119995 0.399017,-2.235962 0.60202,-3.352966l0.018982,-0.004028l0,-0.005005l0.804016,-3.088989c0.071991,-0.257996 0.113983,-0.518005 0.191986,-0.771973l0.229004,-0.765015l0.468994,-1.528992z" fill="#E6E6E6"/>
   <g id="svg_80">
    <g id="svg_81">
     <path id="svg_82" d="m375.776001,661.90802c-0.112,0.083008 -0.634003,0.271973 -1.403015,0.521973" stroke-miterlimit="10" stroke-width="0.75" stroke="#E6E6E6" fill="none"/>
     <line id="svg_83" y2="662.73" x2="373.428" y1="662.728" x1="373.436" stroke-miterlimit="10" stroke-width="0.75" stroke="#E6E6E6" fill="none"/>
     <path id="svg_84" d="m373.428009,662.72998c-3.095001,0.961975 -8.266998,2.414978 -9.513,2.690979c-1.759003,0.390991 -11.136993,1.559998 -12.895996,1.755005c-1.759003,0.194031 -13.678009,0.718994 -14.653992,1.142029c-0.47702,0.205994 -1.348999,0.210999 -2.117004,0.161987" stroke-dasharray="2.9809,0.9837,0,0" stroke-miterlimit="10" stroke-width="0.75" stroke="#E6E6E6" fill="none"/>
     <path id="svg_85" d="m334.243011,668.47998c-0.804016,-0.052002 -1.492004,-0.161987 -1.492004,-0.161987" stroke-miterlimit="10" stroke-width="0.75" stroke="#E6E6E6" fill="none"/>
    </g>
   </g>
   <g id="svg_86">
    <g id="svg_87">
     <line id="svg_88" y2="611.544" x2="319.223" y1="610.895" x1="317.871" stroke-miterlimit="10" stroke-width="0.75" stroke="#E6E6E6" fill="none"/>
     <line id="svg_89" y2="611.923" x2="320.012" y1="611.919" x1="320.004" stroke-miterlimit="10" stroke-width="0.75" stroke="#E6E6E6" fill="none"/>
     <polyline id="svg_90" points="     320.012,611.923 324.445,614.052 326.037,615.402    " stroke-dasharray="2.6269,0.8669,0,0" stroke-miterlimit="10" stroke-width="0.75" stroke="#E6E6E6" fill="none"/>
     <line id="svg_91" y2="616.373" x2="327.18" y1="615.402" x1="326.037" stroke-miterlimit="10" stroke-width="0.75" stroke="#E6E6E6" fill="none"/>
    </g>
   </g>
   <path id="svg_92" d="m341.126007,595.333008c-0.187988,0.755981 -0.283997,1.53302 -0.311005,2.310974c-0.024994,0.776001 0.029022,1.55603 0.192993,2.312012c0.155029,0.756042 0.420013,1.493042 0.833008,2.14502c0.402008,0.661011 0.97702,1.190002 1.60202,1.646973c1.258972,0.903015 2.703979,1.536011 4.195984,1.955994c0.748016,0.206055 1.513,0.354004 2.285004,0.420044c0.385986,0.031006 0.773987,0.042969 1.160004,0.026001c0.386993,-0.020996 0.776001,-0.049011 1.162994,-0.080017c1.549988,-0.135986 3.096008,-0.36499 4.592987,-0.783997c0.748016,-0.208984 1.482025,-0.46698 2.186005,-0.791016c0.352997,-0.161987 0.696014,-0.342957 1.029022,-0.539978c0.330994,-0.197998 0.644989,-0.424988 0.945984,-0.66803c0.60199,-0.487976 1.149017,-1.041992 1.652008,-1.634949c0.501984,-0.590027 0.958984,-1.221008 1.359985,-1.88501c0.403015,-0.660034 0.777008,-1.353027 0.925018,-2.117004c0.166992,-0.757019 0.252991,-1.540039 0.184998,-2.317017c0.091003,0.775024 0.027008,1.564026 -0.118011,2.332031c-0.127991,0.777954 -0.488007,1.496948 -0.875,2.172974c-0.402985,0.672974 -0.867004,1.307007 -1.372986,1.903992c-0.507019,0.596985 -1.061005,1.156006 -1.670013,1.651978c-0.306,0.245056 -0.625,0.476013 -0.962006,0.679016c-0.337982,0.200012 -0.686005,0.382996 -1.041992,0.546021c-0.712006,0.328003 -1.453003,0.589966 -2.207001,0.799988c-1.507996,0.421997 -3.062012,0.651978 -4.617004,0.788025c-0.389984,0.031006 -0.777985,0.059998 -1.169006,0.079956c-0.392975,0.018005 -0.78598,0.006042 -1.176971,-0.026001c-0.782013,-0.065979 -1.555023,-0.216003 -2.310028,-0.42395c-1.505981,-0.424011 -2.961975,-1.062012 -4.23999,-1.979004c-0.630981,-0.459045 -1.225983,-1.007996 -1.638,-1.684998c-0.419983,-0.669006 -0.695984,-1.421021 -0.85199,-2.190002c-0.145996,-0.77301 -0.175018,-1.562012 -0.128021,-2.343018c0.050018,-0.781006 0.17099,-1.55603 0.381012,-2.307007z" fill="#E6E6E6"/>
  </g>
  <g id="svg_93">
   <path id="svg_94" d="m705.919983,144.289001c-7.101013,3.429993 -10.450989,5.173004 -12.934998,6c-2.484009,0.828995 -12.677979,7.968994 -15.161011,7.968994c-2.484009,0 -12.546021,9.779999 -24.138,14.747009c-11.589966,4.968002 -31.523987,4.888 -40.632019,18.964996c-9.10498,14.072998 -31.490967,65.364014 -36.458984,76.95401c-4.96698,11.589996 -15.745972,32.268005 -15.745972,32.268005l-4.14801,17.376984c0,0 25.65802,15.723022 32.281006,18.209015c6.620972,2.484985 37.937988,13.23999 37.937988,13.23999l3.578979,-14.074005l0,-3.312988c0,0 6.973999,-15.730011 9.458008,-19.039001c2.484009,-3.313995 3.489014,21.52301 6.799988,36.425995c3.311035,14.899994 6.710999,46.363007 6.710999,51.328003c0,4.967987 -8.232971,65.403992 -7.406982,70.367981c0.828979,4.969025 -8.255005,70.372986 -6.601013,81.132996c1.657043,10.764038 57.137024,13.25 91.078003,14.078003c33.945007,0.822998 97.696045,0.786987 121.705994,-3.33197c24.007019,-4.121033 29.80603,-4.947998 29.80603,-4.947998s-9.345032,-75.934998 -14.312012,-91.665009c-4.96698,-15.729004 -4.565002,-32.279022 -5.393005,-42.21402c-0.830017,-9.93399 -3.846008,-72.279999 -3.846008,-81.792999c0,-9.515991 0,-20.276978 0,-20.276978l7.223022,5.007996l5.268982,14.860992c0,0 25.734985,-4.964996 39.809998,-9.934998c14.072021,-4.966003 30.699036,-13.246002 30.699036,-13.246002l0,-16.554016l-6.955994,-16.559998c0,0 -9.687012,-30.630997 -13.822998,-40.565002c-4.14502,-9.935989 -16.437988,-46.360001 -23.061035,-49.671997c-6.625,-3.313004 -4.732971,-19.613007 -53.869019,-35.807007c-31.280945,-10.30899 -41.868958,-23.593994 -41.245972,-15.935989c0.937988,11.565002 -1.02301,9.640991 -14.779968,17.733002c-14.072998,8.276001 -22.195007,8.64299 -55.565002,4.705994c-34.86499,-4.11499 -19.17804,-25.873993 -26.280029,-22.439987z" stroke-miterlimit="10" stroke="#E6E6E6" fill="#000000"/>
   <path id="svg_95" d="m646.10498,306.96701c-0.159973,-4.575989 -0.017029,-9.158997 0.005981,-13.729004c0.139038,-4.565002 0.200012,-9.13501 -0.170959,-13.673004c-0.374023,-4.528992 -1.15802,-9.048004 -2.80603,-13.277985c-1.632019,-4.225006 -4.412964,-7.888 -7.297974,-11.415009c-2.892029,-3.522003 -5.768005,-7.201996 -7.765015,-11.365997c-2.070007,-4.115997 -3.711975,-8.412994 -5.171021,-12.759003c-1.459961,-4.347 -2.722961,-8.750992 -3.961975,-13.156006c-1.119995,-4.437988 -2.200989,-8.880997 -3.463989,-13.279999c1.497009,4.325012 2.816956,8.712006 4.174988,13.081009c1.236023,4.401001 2.497009,8.794998 3.950012,13.121002c1.450989,4.322998 3.084961,8.597 5.127991,12.656998c1.973999,4.112991 4.781006,7.703003 7.682983,11.238998c2.887024,3.530991 5.731018,7.261002 7.411987,11.617996c1.679993,4.309998 2.476013,8.906006 2.853027,13.479004c0.375,4.584991 0.310974,9.179993 0.175964,13.756012c-0.259949,4.571991 -0.597961,9.129974 -0.745972,13.704987z" fill="#000000"/>
   <path id="svg_96" d="m896.955017,205.964996c-2.796021,3.583008 -5.31897,7.354004 -7.539978,11.292007c-2.358032,3.853989 -4.440002,7.875992 -6.309998,11.994995c-3.735046,8.244003 -6.619019,16.858994 -9.072021,25.580994c-2.450012,8.728012 -4.465027,17.577988 -6.380981,26.449997l-2.843994,13.321014c-1.114014,4.406006 -2.210999,8.816986 -3.453003,13.188995c0.854004,-4.463989 1.701965,-8.923004 2.492004,-13.395996l2.843994,-13.321991c1.916992,-8.878998 3.935974,-17.749023 6.394958,-26.508011c2.463013,-8.753998 5.360046,-17.415009 9.125,-25.722c1.881042,-4.151001 3.985046,-8.205994 6.361023,-12.102997c2.513977,-3.809006 5.273987,-7.459 8.382996,-10.777008z" fill="#000000"/>
   <g id="svg_97">
    <path id="svg_98" d="m756.148987,182.688004c-9.357971,0 -19.127991,-1.046005 -28.190002,-3.223007c-16.701965,-4.013 -28.830994,-11.293991 -34.153015,-20.502991l0.626038,-0.373001c5.222961,9.03299 17.187988,16.192993 33.695007,20.158997c23.897949,5.740997 52.718994,3.589996 65.617981,-4.899002c7.467957,-4.910004 12.782959,-10.544998 16.72998,-17.735001l0.63501,0.359009c-4.007019,7.298996 -9.39801,13.016998 -16.970032,17.994995c-8.132935,5.350998 -22.494934,8.220001 -37.990967,8.220001z" fill="#000000"/>
   </g>
   <path id="svg_99" d="m629.547974,332.631012c-20.437988,5.195007 -50.335022,-15.294006 -66.229004,-25.665009" stroke-dasharray="3,1,0,0" stroke-miterlimit="10" stroke-width="0.75" stroke="#E6E6E6" fill="#000000"/>
   <path id="svg_100" d="m869.635986,330.14801c21.921997,-4.312012 51.978027,-11.678009 67.88501,-26.490997" stroke-dasharray="3,1,0,0" stroke-miterlimit="10" stroke-width="0.75" stroke="#E6E6E6" fill="#000000"/>
   <path id="svg_101" d="m639.242981,542.916992c56.060974,17.411011 131.646973,14.791016 192.786987,13.244995c15.499023,-0.390991 33.548035,-4.620972 47.398987,-9.106018" stroke-dasharray="3,1,0,0" stroke-miterlimit="10" stroke-width="0.75" stroke="#E6E6E6" fill="#000000"/>
  </g>
  <g id="svg_102">
   <path id="svg_103" d="m675.078003,605.400024c-1.208008,0.583984 -1.776978,0.880005 -2.200012,1.020996c-0.421997,0.142029 -2.154968,1.35498 -2.578003,1.35498s-2.133972,1.663025 -4.104004,2.507996c-1.971985,0.845032 -5.360962,0.830994 -6.909973,3.226013c-1.549011,2.393005 -5.35498,11.11499 -6.200989,13.087036c-0.843994,1.970947 -2.67804,5.487 -2.67804,5.487l-0.704956,2.954956c0,0 4.362976,2.674011 5.48999,3.098022c1.125,0.421997 6.575012,2.250977 6.575012,2.250977l0.732971,-2.393982l0,-0.562988c0,0 1.062012,-2.674988 1.484009,-3.237c0.421997,-0.564026 0.531006,3.659973 1.093994,6.19397c0.564026,2.533997 1.111023,7.88501 1.111023,8.729004s-1.416016,11.122986 -1.275024,11.967041c0.140991,0.844971 -1.411987,11.967957 -1.130981,13.797974c0.281982,1.830994 9.712952,2.252991 15.484985,2.393982s16.612,0.13501 20.695984,-0.565979c4.082031,-0.700989 5.067017,-0.84198 5.067017,-0.84198s-1.588989,-12.913025 -2.434998,-15.588013c-0.843994,-2.676025 -0.539001,-5.48999 -0.679993,-7.179993c-0.142029,-1.689026 -0.41803,-12.291992 -0.41803,-13.910034s0,-3.447998 0,-3.447998l0.992004,0.853027l0.776001,2.526978c0,0 4.497009,-0.846008 6.890991,-1.690002s5.341003,-2.252991 5.341003,-2.252991l0,-2.814026l-1.360962,-2.815979c0,0 -1.737,-5.209961 -2.44104,-6.898987s-2.839966,-7.884033 -3.96698,-8.447021c-1.125977,-0.562988 -0.827026,-3.334961 -9.184021,-6.088989c-5.31897,-1.753967 -7.130981,-4.013977 -7.024963,-2.710999c0.159973,1.96698 -0.179993,1.640015 -2.519043,3.015991c-2.393982,1.40802 -3.777954,1.471008 -9.453003,0.801025c-5.927002,-0.702026 -3.261963,-4.404053 -4.469971,-3.820007z" stroke-miterlimit="10" stroke="#E6E6E6" fill="#7AC943"/>
   <path id="svg_104" d="m664.905029,633.065979c-0.026001,-0.778015 -0.002991,-1.557983 0.000977,-2.335022c0.02301,-0.776001 0.033997,-1.553955 -0.027954,-2.324951c-0.063049,-0.770996 -0.197021,-1.539001 -0.478027,-2.257996c-0.276978,-0.719055 -0.75,-1.342041 -1.240967,-1.94104s-0.980042,-1.224976 -1.320007,-1.93396c-0.353027,-0.699036 -0.631042,-1.43103 -0.880005,-2.170044c-0.247986,-0.737976 -0.463013,-1.487976 -0.674011,-2.235962c-0.189026,-0.756042 -0.374023,-1.512024 -0.588013,-2.26001c0.254028,0.735962 0.479004,1.481995 0.708984,2.224976c0.210999,0.749023 0.425049,1.496033 0.671997,2.231995c0.247009,0.734009 0.525024,1.460999 0.872009,2.152039c0.335999,0.698975 0.812988,1.309998 1.307007,1.91095c0.491028,0.601013 0.975037,1.234009 1.260986,1.976013c0.285034,0.731995 0.421021,1.515015 0.485046,2.29303c0.062988,0.778992 0.052979,1.560974 0.028992,2.338989c-0.044067,0.778992 -0.101013,1.55304 -0.127014,2.330994z" fill="#E6E6E6"/>
   <path id="svg_105" d="m707.565979,615.890015c-0.476013,0.609009 -0.905029,1.250977 -1.281982,1.921021c-0.401001,0.653992 -0.756042,1.338989 -1.072998,2.039001c-0.636047,1.401978 -1.126038,2.866943 -1.54303,4.350952c-0.416992,1.484009 -0.76001,2.989014 -1.084961,4.498047l-0.483032,2.265991c-0.189026,0.748962 -0.377014,1.498962 -0.588013,2.242981c0.145996,-0.76001 0.290039,-1.518005 0.424011,-2.278015l0.483032,-2.265991c0.325989,-1.51001 0.669983,-3.018982 1.087952,-4.507996c0.419006,-1.489014 0.911011,-2.961975 1.552002,-4.374023c0.320007,-0.70697 0.67804,-1.395996 1.082031,-2.05896c0.427002,-0.649048 0.895996,-1.27002 1.424988,-1.833008z" fill="#E6E6E6"/>
   <g id="svg_106">
    <path id="svg_107" d="m683.619995,611.93103c-1.59198,0 -3.252991,-0.177979 -4.794006,-0.547974c-2.841003,-0.683044 -4.903015,-1.921021 -5.809021,-3.486023l0.106018,-0.064026c0.888977,1.537048 2.923035,2.754028 5.72998,3.429016c4.064026,0.976013 8.966003,0.609985 11.159058,-0.833008c1.270996,-0.835999 2.17395,-1.792969 2.845947,-3.015991l0.107056,0.061035c-0.682007,1.240967 -1.598022,2.212952 -2.886047,3.060974c-1.380981,0.907959 -3.823975,1.395996 -6.458984,1.395996z" fill="#E6E6E6"/>
   </g>
   <path id="svg_108" d="m662.090027,637.43103c-3.47699,0.883972 -8.560974,-2.601013 -11.263977,-4.364014" stroke-dasharray="3,1,0,0" stroke-miterlimit="10" stroke-width="0.75" stroke="#E6E6E6" fill="none"/>
   <path id="svg_109" d="m702.919983,637.008972c3.729004,-0.733032 8.840027,-1.986023 11.544983,-4.505005" stroke-dasharray="3,1,0,0" stroke-miterlimit="10" stroke-width="0.75" stroke="#E6E6E6" fill="none"/>
   <path id="svg_110" d="m663.737976,673.192993c9.533997,2.960999 22.388977,2.515015 32.786011,2.252014c2.635986,-0.06604 5.705994,-0.785034 8.062012,-1.549011" stroke-dasharray="3,1,0,0" stroke-miterlimit="10" stroke-width="0.75" stroke="#E6E6E6" fill="none"/>
  </g>
  <g id="svg_111">
   <path id="svg_112" d="m750.078003,605.400024c-1.208008,0.583984 -1.776978,0.880005 -2.200012,1.020996c-0.421997,0.142029 -2.154968,1.35498 -2.578003,1.35498s-2.133972,1.663025 -4.104004,2.507996c-1.971985,0.845032 -5.360962,0.830994 -6.909973,3.226013c-1.549011,2.393005 -5.35498,11.11499 -6.200989,13.087036c-0.843994,1.970947 -2.67804,5.487 -2.67804,5.487l-0.704956,2.954956c0,0 4.362976,2.674011 5.48999,3.098022c1.125,0.421997 6.575012,2.250977 6.575012,2.250977l0.732971,-2.393982l0,-0.562988c0,0 1.062012,-2.674988 1.484009,-3.237c0.421997,-0.564026 0.531006,3.659973 1.093994,6.19397c0.564026,2.533997 1.111023,7.88501 1.111023,8.729004s-1.416016,11.122986 -1.275024,11.967041c0.140991,0.844971 -1.411987,11.967957 -1.130981,13.797974c0.281982,1.830994 9.712952,2.252991 15.484985,2.393982s16.612,0.13501 20.695984,-0.565979c4.082031,-0.700989 5.067017,-0.84198 5.067017,-0.84198s-1.588989,-12.913025 -2.434998,-15.588013c-0.843994,-2.676025 -0.539001,-5.48999 -0.679993,-7.179993c-0.142029,-1.689026 -0.41803,-12.291992 -0.41803,-13.910034s0,-3.447998 0,-3.447998l0.992004,0.853027l0.776001,2.526978c0,0 4.497009,-0.846008 6.890991,-1.690002s5.341003,-2.252991 5.341003,-2.252991l0,-2.814026l-1.360962,-2.815979c0,0 -1.737,-5.209961 -2.44104,-6.898987s-2.839966,-7.884033 -3.96698,-8.447021c-1.125977,-0.562988 -0.827026,-3.334961 -9.184021,-6.088989c-5.31897,-1.753967 -7.130981,-4.013977 -7.024963,-2.710999c0.159973,1.96698 -0.179993,1.640015 -2.519043,3.015991c-2.393982,1.40802 -3.777954,1.471008 -9.453003,0.801025c-5.927002,-0.702026 -3.261963,-4.404053 -4.469971,-3.820007z" stroke-miterlimit="10" stroke="#E6E6E6" fill="#FF1D25"/>
   <path id="svg_113" d="m739.905029,633.065979c-0.026001,-0.778015 -0.002991,-1.557983 0.000977,-2.335022c0.02301,-0.776001 0.033997,-1.553955 -0.027954,-2.324951c-0.063049,-0.770996 -0.197021,-1.539001 -0.478027,-2.257996c-0.276978,-0.719055 -0.75,-1.342041 -1.240967,-1.94104s-0.980042,-1.224976 -1.320007,-1.93396c-0.353027,-0.699036 -0.631042,-1.43103 -0.880005,-2.170044c-0.247986,-0.737976 -0.463013,-1.487976 -0.674011,-2.235962c-0.189026,-0.756042 -0.374023,-1.512024 -0.588013,-2.26001c0.254028,0.735962 0.479004,1.481995 0.708984,2.224976c0.210999,0.749023 0.425049,1.496033 0.671997,2.231995c0.247009,0.734009 0.525024,1.460999 0.872009,2.152039c0.335999,0.698975 0.812988,1.309998 1.307007,1.91095c0.491028,0.601013 0.975037,1.234009 1.260986,1.976013c0.285034,0.731995 0.421021,1.515015 0.485046,2.29303c0.062988,0.778992 0.052979,1.560974 0.028992,2.338989c-0.044067,0.778992 -0.101013,1.55304 -0.127014,2.330994z" fill="#E6E6E6"/>
   <path id="svg_114" d="m782.565979,615.890015c-0.476013,0.609009 -0.905029,1.250977 -1.281982,1.921021c-0.401001,0.653992 -0.756042,1.338989 -1.072998,2.039001c-0.636047,1.401978 -1.126038,2.866943 -1.54303,4.350952c-0.416992,1.484009 -0.76001,2.989014 -1.084961,4.498047l-0.483032,2.265991c-0.189026,0.748962 -0.377014,1.498962 -0.588013,2.242981c0.145996,-0.76001 0.290039,-1.518005 0.424011,-2.278015l0.483032,-2.265991c0.325989,-1.51001 0.669983,-3.018982 1.087952,-4.507996c0.419006,-1.489014 0.911011,-2.961975 1.552002,-4.374023c0.320007,-0.70697 0.67804,-1.395996 1.082031,-2.05896c0.427002,-0.649048 0.895996,-1.27002 1.424988,-1.833008z" fill="#E6E6E6"/>
   <g id="svg_115">
    <path id="svg_116" d="m758.619995,611.93103c-1.59198,0 -3.252991,-0.177979 -4.794006,-0.547974c-2.841003,-0.683044 -4.903015,-1.921021 -5.809021,-3.486023l0.106018,-0.064026c0.888977,1.537048 2.923035,2.754028 5.72998,3.429016c4.064026,0.976013 8.966003,0.609985 11.159058,-0.833008c1.270996,-0.835999 2.17395,-1.792969 2.845947,-3.015991l0.107056,0.061035c-0.682007,1.240967 -1.598022,2.212952 -2.886047,3.060974c-1.380981,0.907959 -3.823975,1.395996 -6.458984,1.395996z" fill="#E6E6E6"/>
   </g>
   <path id="svg_117" d="m737.090027,637.43103c-3.47699,0.883972 -8.560974,-2.601013 -11.263977,-4.364014" stroke-dasharray="3,1,0,0" stroke-miterlimit="10" stroke-width="0.75" stroke="#E6E6E6" fill="none"/>
   <path id="svg_118" d="m777.919983,637.008972c3.729004,-0.733032 8.840027,-1.986023 11.544983,-4.505005" stroke-dasharray="3,1,0,0" stroke-miterlimit="10" stroke-width="0.75" stroke="#E6E6E6" fill="none"/>
   <path id="svg_119" d="m738.737976,673.192993c9.533997,2.960999 22.388977,2.515015 32.786011,2.252014c2.635986,-0.06604 5.705994,-0.785034 8.062012,-1.549011" stroke-dasharray="3,1,0,0" stroke-miterlimit="10" stroke-width="0.75" stroke="#E6E6E6" fill="none"/>
  </g>
  <g id="svg_120">
   <path id="svg_121" d="m824.078003,607.400024c-1.208008,0.583984 -1.776978,0.880005 -2.200012,1.020996c-0.421997,0.142029 -2.154968,1.35498 -2.578003,1.35498s-2.133972,1.663025 -4.104004,2.507996c-1.971985,0.845032 -5.360962,0.830994 -6.909973,3.226013c-1.549011,2.393005 -5.35498,11.11499 -6.200989,13.087036c-0.843994,1.970947 -2.67804,5.487 -2.67804,5.487l-0.704956,2.954956c0,0 4.362976,2.674011 5.48999,3.098022c1.125,0.421997 6.575012,2.250977 6.575012,2.250977l0.732971,-2.393982l0,-0.562988c0,0 1.062012,-2.674988 1.484009,-3.237c0.421997,-0.564026 0.531006,3.659973 1.093994,6.19397c0.564026,2.533997 1.111023,7.88501 1.111023,8.729004s-1.416016,11.122986 -1.275024,11.967041c0.140991,0.844971 -1.411987,11.967957 -1.130981,13.797974c0.281982,1.830994 9.712952,2.252991 15.484985,2.393982s16.612,0.13501 20.695984,-0.565979c4.082031,-0.700989 5.067017,-0.84198 5.067017,-0.84198s-1.588989,-12.913025 -2.434998,-15.588013c-0.843994,-2.676025 -0.539001,-5.48999 -0.679993,-7.179993c-0.142029,-1.689026 -0.41803,-12.291992 -0.41803,-13.910034s0,-3.447998 0,-3.447998l0.992004,0.853027l0.776001,2.526978c0,0 4.497009,-0.846008 6.890991,-1.690002s5.341003,-2.252991 5.341003,-2.252991l0,-2.814026l-1.360962,-2.815979c0,0 -1.737,-5.209961 -2.44104,-6.898987s-2.839966,-7.884033 -3.96698,-8.447021c-1.125977,-0.562988 -0.827026,-3.334961 -9.184021,-6.088989c-5.31897,-1.753967 -7.130981,-4.013977 -7.024963,-2.710999c0.159973,1.96698 -0.179993,1.640015 -2.519043,3.015991c-2.393982,1.40802 -3.777954,1.471008 -9.453003,0.801025c-5.927002,-0.702026 -3.261963,-4.404053 -4.469971,-3.820007z" stroke-miterlimit="10" stroke="#E6E6E6" fill="#FF931E"/>
   <path id="svg_122" d="m813.905029,635.065979c-0.026001,-0.778015 -0.002991,-1.557983 0.000977,-2.335022c0.02301,-0.776001 0.033997,-1.553955 -0.027954,-2.324951c-0.063049,-0.770996 -0.197021,-1.539001 -0.478027,-2.257996c-0.276978,-0.719055 -0.75,-1.342041 -1.240967,-1.94104s-0.980042,-1.224976 -1.320007,-1.93396c-0.353027,-0.699036 -0.631042,-1.43103 -0.880005,-2.170044c-0.247986,-0.737976 -0.463013,-1.487976 -0.674011,-2.235962c-0.189026,-0.756042 -0.374023,-1.512024 -0.588013,-2.26001c0.254028,0.735962 0.479004,1.481995 0.708984,2.224976c0.210999,0.749023 0.425049,1.496033 0.671997,2.231995c0.247009,0.734009 0.525024,1.460999 0.872009,2.152039c0.335999,0.698975 0.812988,1.309998 1.307007,1.91095c0.491028,0.601013 0.975037,1.234009 1.260986,1.976013c0.285034,0.731995 0.421021,1.515015 0.485046,2.29303c0.062988,0.778992 0.052979,1.560974 0.028992,2.338989c-0.044067,0.778992 -0.101013,1.55304 -0.127014,2.330994z" fill="#E6E6E6"/>
   <path id="svg_123" d="m856.565979,617.890015c-0.476013,0.609009 -0.905029,1.250977 -1.281982,1.921021c-0.401001,0.653992 -0.756042,1.338989 -1.072998,2.039001c-0.636047,1.401978 -1.126038,2.866943 -1.54303,4.350952c-0.416992,1.484009 -0.76001,2.989014 -1.084961,4.498047l-0.483032,2.265991c-0.189026,0.748962 -0.377014,1.498962 -0.588013,2.242981c0.145996,-0.76001 0.290039,-1.518005 0.424011,-2.278015l0.483032,-2.265991c0.325989,-1.51001 0.669983,-3.018982 1.087952,-4.507996c0.419006,-1.489014 0.911011,-2.961975 1.552002,-4.374023c0.320007,-0.70697 0.67804,-1.395996 1.082031,-2.05896c0.427002,-0.649048 0.895996,-1.27002 1.424988,-1.833008z" fill="#E6E6E6"/>
   <g id="svg_124">
    <path id="svg_125" d="m832.619995,613.93103c-1.59198,0 -3.252991,-0.177979 -4.794006,-0.547974c-2.841003,-0.683044 -4.903015,-1.921021 -5.809021,-3.486023l0.106018,-0.064026c0.888977,1.537048 2.923035,2.754028 5.72998,3.429016c4.064026,0.976013 8.966003,0.609985 11.159058,-0.833008c1.270996,-0.835999 2.17395,-1.792969 2.845947,-3.015991l0.107056,0.061035c-0.682007,1.240967 -1.598022,2.212952 -2.886047,3.060974c-1.380981,0.907959 -3.823975,1.395996 -6.458984,1.395996z" fill="#E6E6E6"/>
   </g>
   <path id="svg_126" d="m811.090027,639.43103c-3.47699,0.883972 -8.560974,-2.601013 -11.263977,-4.364014" stroke-dasharray="3,1,0,0" stroke-miterlimit="10" stroke-width="0.75" stroke="#E6E6E6" fill="none"/>
   <path id="svg_127" d="m851.919983,639.008972c3.729004,-0.733032 8.840027,-1.986023 11.544983,-4.505005" stroke-dasharray="3,1,0,0" stroke-miterlimit="10" stroke-width="0.75" stroke="#E6E6E6" fill="none"/>
   <path id="svg_128" d="m812.737976,675.192993c9.533997,2.960999 22.388977,2.515015 32.786011,2.252014c2.635986,-0.06604 5.705994,-0.785034 8.062012,-1.549011" stroke-dasharray="3,1,0,0" stroke-miterlimit="10" stroke-width="0.75" stroke="#E6E6E6" fill="none"/>
  </g>
  <g id="svg_129">
   <path id="svg_130" d="m519.137024,42.852001l-10.208008,0l0,-1.702c0,-3 1.216003,-4.458 3.64801,-4.458c1.054993,0 1.904968,0.202 3.041992,0.527l0,-2.715c-1.015991,-0.365002 -1.987,-0.527 -3.445984,-0.527c-1.905029,0 -3.446014,0.565998 -4.5,1.620998c-1.175018,1.174999 -1.825012,3 -1.825012,5.390999l0,1.824001l-2.877014,0l0,2.716l2.877014,0l0,18.200001l3.122986,0l0,-18.200001l10.155029,0l-0.087036,18.200001l3.119995,0l0,-20.880001l-3.021973,0.003002l0,0zm69.924988,8.917999c-2.796997,-0.852001 -5.393005,-1.622002 -5.393005,-3.607002l0,-0.080997c0,-1.742001 1.582031,-3.041 4.054993,-3.041c2.026001,0 4.257019,0.77 6.200989,2.027l1.420044,-2.352001c-2.149048,-1.417999 -4.987,-2.310001 -7.540039,-2.310001c-4.135986,0 -7.133972,2.391003 -7.133972,6l0,0.081001c0,3.851002 3.646973,4.986 6.930969,5.917c2.756042,0.771 5.229004,1.582001 5.229004,3.690002l0,0.080997c0,2.026001 -1.823975,3.323002 -4.336975,3.323002l-0.072021,0.008999l0,0l-16.885986,0l0,-6.130001c0,-6.323997 3.729004,-9.605999 8.309998,-9.605999l0.244019,0l0,-3.365002c-3.973022,-0.161999 -7.013,2.352001 -8.554016,5.837002l0,-5.472l-3.119995,0l0,18.736l-11.119995,0l0,-0.008999c-3.689026,0 -6.932007,-2.554001 -7.377014,-6.972l16.619019,0c0.039001,-0.486 0.039001,-0.811001 0.039001,-1.095001c0,-6.160999 -3.565002,-11.105999 -9.768005,-11.105999c-5.468994,0 -9.565002,4.332001 -10.010986,9.926998c-0.430054,-6.312 -5.184998,-9.926998 -9.978027,-9.926998c-3.851013,0 -6.322021,2.147999 -8.025024,4.661999l0,-12.849998l-3.122986,0l0,29.59l3.122986,0l0,-4.012001c1.621033,2.351002 4.134033,4.457996 8.025024,4.457996c4.820007,0 9.526978,-3.669998 9.974976,-9.924995c0.445007,5.985001 4.955017,9.965996 10.41803,9.965996l0,-0.010994l0.674988,0c-1.182983,0.386993 -2.31897,0.833 -3.325989,1.340996c-5.200989,2.628998 -5.666992,3.111 -5.666992,3.111s4.977966,-2.851997 11.472961,-4.451996l1.027039,0c-4.486023,1.556 -10.104004,3.843994 -14.028015,6.619995c-0.297974,0.108002 -0.362,0.134003 -0.362,0.134003s0.121033,-0.042999 0.348999,-0.124001c-0.010986,0.006996 -0.020996,0.014 -0.031006,0.020996c-7.526978,5.350006 -8.114014,6.215004 -8.114014,6.215004s5.32605,-4.245003 13.255005,-8.014c2.197998,-0.754997 4.906006,-1.669998 7.827026,-2.628998c-1.582031,0.711998 -3.127014,1.532997 -4.377991,2.443001c-4.536011,3.299995 -4.885986,3.836998 -4.885986,3.836998s5.20697,-4.257004 12.276978,-6.700005c-1.319031,0.819 -2.802979,2.010002 -2.802979,2.010002s2.07196,-1.303001 3.069946,-1.82c0.330017,-0.170998 1.899048,-0.878998 2.811035,-1.164001c0.71698,-0.223999 2.682007,-0.829994 2.682007,-0.829994l19.357971,0c4.132996,-0.033005 7.368042,-2.409004 7.368042,-6.353004l0,-0.078999c-0.001038,-3.77 -3.486023,-5.027 -6.728027,-6zm-32.333008,-6.810001c4.133972,0 6.322998,3.243 6.687988,7.053001l-13.498962,0c0.444946,-4.054001 3.202942,-7.053001 6.810974,-7.053001zm-13.096985,8.351002c0,5.065998 -3.325012,8.065998 -7.380005,8.065998c-3.890991,0 -7.578979,-3.243 -7.578979,-8.106998l0,-0.081001c0,-4.783001 3.687988,-8.066998 7.578979,-8.066998c3.973999,0 7.380005,3.161999 7.380005,8.105999l0,0.083zm18.11499,12.492001c-0.263,0.107002 -0.530029,0.218002 -0.794983,0.332001c-2.454041,0.806999 -5.062012,1.678001 -7.241028,2.444c-0.325989,0.113998 -0.632996,0.222 -0.929016,0.325996c2.568054,-1.206001 5.39801,-2.355995 8.404053,-3.294998c0.703979,-0.220001 1.344971,-0.419998 1.931946,-0.601997l-3.879944,1.459999l2.508972,-0.665001zm-42.911011,-27.612l3.565979,0l0,-3.444l-3.565979,0l0,3.444z" fill="#231F20"/>
   <g id="svg_131">
    <path id="svg_132" d="m571.143005,70.335999l0.927002,0l0,1.055l-0.927002,0l0,-1.055z" fill="#231F20"/>
    <path id="svg_133" d="m573.174011,68.818001l0,-0.020004c0,-1.466995 1.145996,-2.713997 2.664001,-2.713997c0.982971,0 1.596985,0.413002 2.080994,0.925003l-0.513,0.542c-0.413025,-0.431999 -0.875,-0.784004 -1.578003,-0.784004c-1.055969,0 -1.859985,0.895004 -1.859985,2.011002l0,0.019997c0,1.126007 0.825989,2.021004 1.908997,2.021004c0.664001,0 1.177002,-0.333 1.588013,-0.774002l0.493958,0.462006c-0.523987,0.582993 -1.145996,1.004997 -2.120972,1.004997c-1.519043,0 -2.664001,-1.236 -2.664001,-2.694z" fill="#231F20"/>
    <path id="svg_134" d="m578.768005,68.818001l0,-0.020004c0,-1.466995 1.14502,-2.713997 2.713013,-2.713997c1.559998,0 2.703979,1.226997 2.703979,2.694l0,0.019997c0,1.468002 -1.156006,2.714005 -2.723999,2.714005c-1.557983,0 -2.692993,-1.225998 -2.692993,-2.694zm4.624023,0l0,-0.020004c0,-1.114998 -0.835022,-2.030998 -1.930969,-2.030998c-1.127014,0 -1.900024,0.916 -1.900024,2.011002l0,0.019997c0,1.116005 0.823975,2.021004 1.919983,2.021004c1.125977,0 1.911011,-0.904999 1.911011,-2.000999z" fill="#231F20"/>
    <path id="svg_135" d="m585.585999,66.195l0.77301,0l0,0.874001c0.34198,-0.513 0.804993,-0.985001 1.677979,-0.985001c0.845032,0 1.389038,0.453003 1.669983,1.036003c0.372009,-0.572006 0.924011,-1.036003 1.830017,-1.036003c1.195007,0 1.929993,0.805 1.929993,2.091003l0,3.216995l-0.774963,0l0,-3.035995c0,-1.005005 -0.502014,-1.569 -1.347046,-1.569c-0.782959,0 -1.435974,0.583 -1.435974,1.607994l0,2.996002l-0.765991,0l0,-3.056c0,-0.974998 -0.513,-1.547997 -1.336975,-1.547997s-1.447021,0.684998 -1.447021,1.639l0,2.964996l-0.77301,0l0,-5.195999z" fill="#231F20"/>
   </g>
  </g>
  <g id="svg_136">
   <path id="svg_137" d="m397.352997,57.877998l2.322998,-0.365997c0.130005,0.931 0.494019,1.645 1.089996,2.140999c0.596008,0.495998 1.429016,0.743999 2.5,0.743999c1.07901,0 1.878998,-0.220001 2.401001,-0.659s0.78302,-0.954998 0.78302,-1.546997c0,-0.531002 -0.231018,-0.948002 -0.692017,-1.253002c-0.321991,-0.209 -1.122986,-0.473999 -2.401001,-0.796001c-1.722992,-0.434998 -2.916992,-0.811996 -3.583008,-1.128998c-0.665985,-0.318001 -1.169983,-0.757 -1.513977,-1.318001c-0.344025,-0.562 -0.516022,-1.181 -0.516022,-1.860001c0,-0.618 0.141022,-1.189999 0.424011,-1.716c0.282013,-0.526001 0.666992,-0.963001 1.154999,-1.312c0.365997,-0.27 0.863007,-0.498001 1.494995,-0.686001c0.630005,-0.187 1.307007,-0.279999 2.028992,-0.279999c1.087006,0 2.042023,0.156002 2.865021,0.470001c0.821991,0.313 1.428986,0.737 1.820984,1.271999s0.661011,1.250999 0.809021,2.146999l-2.296997,0.313c-0.104004,-0.712997 -0.407013,-1.271 -0.907013,-1.670998c-0.5,-0.400002 -1.207001,-0.600002 -2.121002,-0.600002c-1.07901,0 -1.848999,0.178001 -2.311005,0.535c-0.460999,0.357002 -0.690979,0.775002 -0.690979,1.253002c0,0.305 0.095978,0.578999 0.286987,0.821999c0.19101,0.251999 0.490997,0.460999 0.899994,0.625999c0.235016,0.087002 0.927002,0.286999 2.075012,0.600002c1.661987,0.443996 2.820984,0.806999 3.479004,1.09c0.656982,0.282997 1.171997,0.693996 1.54599,1.232998s0.562012,1.209 0.562012,2.010002c0,0.782997 -0.229004,1.521 -0.686005,2.211998c-0.457001,0.692001 -1.115997,1.227001 -1.97702,1.605s-1.835999,0.568001 -2.923981,0.568001c-1.800995,0 -3.174011,-0.374001 -4.118011,-1.123001c-0.942993,-0.744999 -1.544983,-1.855 -1.806,-3.325001z"/>
   <path id="svg_138" d="m411.65799,62.014999l0,-19.133999l2.348999,0l0,6.864998c1.096008,-1.269997 2.479004,-1.904999 4.149994,-1.904999c1.026001,0 1.917999,0.202 2.675018,0.607002c0.756989,0.403999 1.298981,0.962997 1.625,1.676998c0.326996,0.714001 0.48999,1.749001 0.48999,3.105999l0,8.784l-2.350006,0l0,-8.784c0,-1.174999 -0.253998,-2.029999 -0.763,-2.563999c-0.509003,-0.535 -1.229004,-0.803001 -2.160004,-0.803001c-0.695984,0 -1.350983,0.181 -1.963989,0.542c-0.613007,0.361 -1.050995,0.851002 -1.312012,1.468002c-0.260986,0.618 -0.391998,1.471001 -0.391998,2.557999l0,7.583l-2.347992,0z"/>
   <path id="svg_139" d="m426.536011,45.583l0,-2.702l2.350006,0l0,2.702l-2.350006,0zm0,16.431999l0,-13.861l2.350006,0l0,13.861l-2.350006,0z"/>
   <path id="svg_140" d="m432.436005,62.014999l0,-13.861l2.113983,0l0,2.102001c0.540009,-0.983002 1.038025,-1.632 1.495026,-1.945c0.457001,-0.313 0.958984,-0.470001 1.506989,-0.470001c0.791992,0 1.596985,0.251999 2.415009,0.757l-0.809021,2.18c-0.573975,-0.339001 -1.14798,-0.508999 -1.722992,-0.508999c-0.514008,0 -0.975006,0.154999 -1.384003,0.462997c-0.408997,0.309002 -0.699982,0.737003 -0.875,1.286003c-0.260986,0.834999 -0.391998,1.748997 -0.391998,2.740997l0,7.257l-2.347992,0l0,-0.000999z"/>
   <path id="svg_141" d="m446.492004,59.914001l0.338989,2.074997c-0.66098,0.139 -1.252991,0.208 -1.774994,0.208c-0.852997,0 -1.514008,-0.134998 -1.984009,-0.403999c-0.470001,-0.27 -0.800995,-0.625 -0.992004,-1.063999c-0.191986,-0.438999 -0.286987,-1.363998 -0.286987,-2.772999l0,-7.975002l-1.722992,0l0,-1.827l1.722992,0l0,-3.432999l2.335999,-1.41l0,4.841999l2.362,0l0,1.827l-2.362,0l0,8.105c0,0.670002 0.041992,1.101002 0.123993,1.292s0.21701,0.344002 0.404999,0.457001c0.187012,0.112999 0.455017,0.170002 0.803009,0.170002c0.260986,0.000999 0.605011,-0.029003 1.031006,-0.09z"/>
   <path id="svg_142" d="m447.850006,57.877998l2.322998,-0.365997c0.130005,0.931 0.494019,1.645 1.089996,2.140999c0.596008,0.495998 1.429016,0.743999 2.5,0.743999c1.07901,0 1.878998,-0.220001 2.401001,-0.659s0.78302,-0.954998 0.78302,-1.546997c0,-0.531002 -0.231018,-0.948002 -0.692017,-1.253002c-0.321991,-0.209 -1.122986,-0.473999 -2.401001,-0.796001c-1.722992,-0.434998 -2.916992,-0.811996 -3.583008,-1.128998c-0.665985,-0.318001 -1.169983,-0.757 -1.513977,-1.318001c-0.343994,-0.562 -0.516022,-1.181 -0.516022,-1.860001c0,-0.618 0.141022,-1.189999 0.424011,-1.716c0.282013,-0.526001 0.666992,-0.963001 1.154999,-1.312c0.365997,-0.27 0.863007,-0.498001 1.494995,-0.686001c0.630005,-0.187 1.307007,-0.279999 2.029022,-0.279999c1.086975,0 2.041992,0.156002 2.86499,0.470001c0.821991,0.313 1.428986,0.737 1.820984,1.271999s0.661011,1.250999 0.809021,2.146999l-2.296997,0.313c-0.104004,-0.712997 -0.407013,-1.271 -0.907013,-1.670998c-0.5,-0.400002 -1.207001,-0.600002 -2.121002,-0.600002c-1.07901,0 -1.848999,0.178001 -2.311005,0.535c-0.460999,0.357002 -0.690979,0.775002 -0.690979,1.253002c0,0.305 0.095978,0.578999 0.286987,0.821999c0.19101,0.251999 0.490997,0.460999 0.899994,0.625999c0.235016,0.087002 0.927002,0.286999 2.075012,0.600002c1.661987,0.443996 2.820984,0.806999 3.479004,1.09c0.656982,0.282997 1.171997,0.693996 1.54599,1.232998s0.562012,1.209 0.562012,2.010002c0,0.782997 -0.229004,1.521 -0.686005,2.211998c-0.457001,0.692001 -1.115997,1.227001 -1.97702,1.605s-1.835999,0.568001 -2.923981,0.568001c-1.800995,0 -3.174011,-0.374001 -4.118011,-1.123001c-0.942993,-0.744999 -1.545013,-1.855 -1.806,-3.325001z"/>
   <path id="svg_143" d="m471.747009,62.014999l-2.179993,0l0,-19.133999l2.348999,0l0,6.826c0.992004,-1.243999 2.257996,-1.866001 3.798004,-1.866001c0.852997,0 1.660004,0.172001 2.42099,0.514999c0.760986,0.344002 1.388,0.827 1.878998,1.449001c0.490997,0.623001 0.876007,1.373001 1.154999,2.250999c0.278992,0.879002 0.417999,1.819 0.417999,2.819c0,2.375 -0.587006,4.210999 -1.761993,5.507999c-1.174011,1.296001 -2.584015,1.945 -4.229004,1.945c-1.635986,0 -2.919006,-0.682999 -3.850006,-2.049l0,1.736l0.001007,0zm-0.026001,-7.035c0,1.661999 0.226013,2.862999 0.679016,3.602001c0.73999,1.209 1.73999,1.813999 3.001984,1.813999c1.026001,0 1.914001,-0.445999 2.662994,-1.338001c0.748016,-0.891998 1.123016,-2.220997 1.123016,-3.987c0,-1.809998 -0.359009,-3.146 -1.076996,-4.007s-1.585022,-1.292 -2.604004,-1.292c-1.027008,0 -1.915009,0.445999 -2.662994,1.337002c-0.749023,0.892998 -1.123016,2.182999 -1.123016,3.870998z"/>
   <path id="svg_144" d="m484.34201,67.352997l-0.260986,-2.205994c0.513,0.139 0.960999,0.209 1.343994,0.209c0.522003,0 0.940002,-0.087006 1.252991,-0.261002c0.312988,-0.174004 0.570007,-0.417 0.769989,-0.731003c0.14801,-0.235001 0.387024,-0.817997 0.718018,-1.748997c0.042999,-0.131001 0.113007,-0.322002 0.208984,-0.575001l-5.259979,-13.887001l2.531982,0l2.884003,8.027c0.373993,1.018002 0.709015,2.088001 1.005005,3.209999c0.269989,-1.078999 0.59201,-2.131001 0.966003,-3.158001l2.962982,-8.078999l2.348999,0l-5.27298,14.096001c-0.565002,1.521999 -1.005005,2.570999 -1.317993,3.145996c-0.417999,0.774002 -0.896027,1.342003 -1.436005,1.703003s-1.183014,0.542 -1.932007,0.542c-0.451996,0 -0.957001,-0.096001 -1.513,-0.287003z"/>
  </g>
  <text id="svg_145" font-size="29.6323" font-family="'ArialMT'" transform="matrix(1 0 0 1 419.302 731.161)">www.fibers.com</text>
  <line id="svg_146" y2="25.5" x2="959" y1="25.5" x1="85" stroke-miterlimit="10" stroke-width="3" stroke="#000000" fill="none"/>
  <line id="svg_147" y2="744.5" x2="959" y1="744.5" x1="85" stroke-miterlimit="10" stroke-width="3" stroke="#000000" fill="none"/>
 </g>
</svg>