<?xml version="1.0" encoding="UTF-8" standalone="no"?>
<svg
   xmlns:dc="http://purl.org/dc/elements/1.1/"
   xmlns:cc="http://creativecommons.org/ns#"
   xmlns:rdf="http://www.w3.org/1999/02/22-rdf-syntax-ns#"
   xmlns:svg="http://www.w3.org/2000/svg"
   xmlns="http://www.w3.org/2000/svg"
   xmlns:sodipodi="http://sodipodi.sourceforge.net/DTD/sodipodi-0.dtd"
   xmlns:inkscape="http://www.inkscape.org/namespaces/inkscape"
   width="1024"
   height="768"
   version="1.1"
   id="svg3445"
   sodipodi:docname="template.svg"
   inkscape:version="0.92.3 (2405546, 2018-03-11)">
  <metadata
     id="metadata3451">
    <rdf:RDF>
      <cc:Work
         rdf:about="">
        <dc:format>image/svg+xml</dc:format>
        <dc:type
           rdf:resource="http://purl.org/dc/dcmitype/StillImage" />
        <dc:title>plain colored template</dc:title>
      </cc:Work>
    </rdf:RDF>
  </metadata>
  <defs
     id="defs3449" />
  <sodipodi:namedview
     pagecolor="#ffffff"
     bordercolor="#666666"
     borderopacity="1"
     objecttolerance="10"
     gridtolerance="10"
     guidetolerance="10"
     inkscape:pageopacity="0"
     inkscape:pageshadow="2"
     inkscape:window-width="1920"
     inkscape:window-height="1053"
     id="namedview3447"
     showgrid="false"
     inkscape:zoom="8.0051491"
     inkscape:cx="538.45897"
     inkscape:cy="663.87498"
     inkscape:window-x="0"
     inkscape:window-y="0"
     inkscape:window-maximized="1"
     inkscape:current-layer="g4214" />
  <title
     id="title3292">plain colored template</title>
  <g
     id="g4196"
     transform="matrix(0.66636456,0,0,0.66636456,23.199501,-15.761542)">
    <path
       style="fill:#000000;stroke:#e6e6e6;stroke-miterlimit:10"
       inkscape:connector-curvature="0"
       stroke-miterlimit="10"
       d="m 222.64943,152.52018 c 0,0 -15.439,27.653 0,40.21502 15.76001,12.82799 29.11399,15.571 53.84799,14.002 22.61801,-1.43502 35.15399,-9.513 44.155,-22.61702 3.48001,-5.067 9.69201,-12.924 6.46399,-26.92299 0,0 8.61401,4.308 19.38501,5.38499 10.77002,1.077 44.15899,1.077 57.078,9.692 12.923,8.61499 29.07999,22.37101 40.92401,36.49401 11.84799,14.123 34.466,42.12399 34.466,42.12399 0,0 -50.62002,40.927 -54.92602,44.15701 -4.30899,3.23001 -23.694,-16.156 -26.926,-17.23199 -3.22998,-1.07501 -18.30899,15.195 -18.30899,22.67499 0,7.48199 2.155,22.55898 -3.229,29.02001 -5.38501,6.46198 -12.926,20.98398 -12.926,30.956 0,9.97 10.76801,56.28097 14.00199,63.81799 3.229,7.54001 3.229,28.00601 6.461,34.46399 3.23102,6.46201 15.07602,54.97101 18.311,59.28101 3.22702,4.30603 6.46002,24.50396 6.46002,24.50396 0,0 -7.54,4.57404 -21.54,9.95801 -23.176,8.91303 -71.86701,14.73999 -110.931,20.23004 -37.336,5.25 -106.618,13.10999 -109.851,3.41596 -3.23101,-9.69098 -5.385,-37.69098 -7.538,-53.84497 -4.98199,-37.34802 -2.02099,-87.60401 0,-77.54801 -2.155,-10.76898 -6.462,-43.07699 -6.462,-57.07598 0,-14.00101 9.69301,-32.31003 0,-38.77201 -9.692,-6.46301 -12.924,-39.73099 -8.616,-48.406 4.308,-8.67301 -20.461,-14.05701 -28,-19.443 -7.542,-5.384 -42.001997,-20.462 -42.001997,-20.462 0,0 25.847,-45.232 26.925003,-50.61901 1.075994,-5.38398 9.691994,-36.61599 44.154984,-38.77198 34.46202,-2.153 20.463,3.23199 34.46202,-2.153 14.004,-5.38402 44.15999,-16.52301 44.15999,-16.52301 z"
       id="svg_2" />
    <path
       style="fill:#ffffff"
       inkscape:connector-curvature="0"
       d="m 137.08043,172.09218 c 1.041,4.917 1.958,9.85901 2.858,14.804 0.774,4.966 1.50599,9.938 2.169,14.91999 0.66201,4.98201 1.262,9.97501 1.74199,14.98101 0.472,5.00599 0.856,10.028 0.886,15.072 0.007,2.51599 -0.083,5.068 -0.47299,7.564 l -1.078,7.462 -2.29199,14.89499 c -0.76101,4.96401 -1.51001,9.92901 -2.16701,14.90401 -0.39,2.479 -0.757,4.961 -1.067,7.452 -0.296,2.48999 -0.584,4.988 -0.577,7.5 -0.133,-2.512 0.029,-5.03 0.201,-7.538 0.186,-2.509 0.428,-5.013 0.694,-7.51401 0.659,-4.984 1.409,-9.95401 2.17,-14.91899 l 2.292,-14.893 c 0.68699,-4.981 1.67601,-9.90801 1.543,-14.911 -0.03,-5.003 -0.41201,-10.011 -0.883,-15.003 -0.479,-4.99401 -1.078,-9.978 -1.739,-14.95301 -0.664,-4.97599 -1.39,-9.944 -2.169,-14.903 -0.659,-4.97699 -1.38,-9.94799 -2.11,-14.91999 z"
       id="svg_3" />
    <g
       style="fill:none"
       transform="translate(11.016432,8.4741784)"
       id="svg_4">
      <g
         style="fill:none"
         id="svg_5">
        <path
           style="fill:none;stroke:#e6e6e6;stroke-width:0.75;stroke-miterlimit:10"
           inkscape:connector-curvature="0"
           stroke-miterlimit="10"
           d="m 459.138,231.541 c -0.41199,0.23801 -0.84399,0.492 -1.29401,0.75999"
           id="svg_6" />
        <line
           style="fill:none;stroke:#e6e6e6;stroke-width:0.75;stroke-miterlimit:10;stroke-dasharray:0.0102, 0"
           stroke-miterlimit="10"
           x1="456.98001"
           y1="232.82001"
           x2="456.97299"
           y2="232.82401"
           id="svg_7" />
        <path
           style="fill:none;stroke:#e6e6e6;stroke-width:0.75;stroke-miterlimit:10;stroke-dasharray:3.0532, 1.0076, 0.0102, 0"
           inkscape:connector-curvature="0"
           stroke-miterlimit="10"
           d="m 456.97299,232.824 c -10.11899,6.11802 -27.789,18.21201 -27.789,18.21201 l -23.698,23.694 -5.32101,3.802"
           id="svg_8" />
        <line
           style="fill:none;stroke:#e6e6e6;stroke-width:0.75;stroke-miterlimit:10"
           stroke-miterlimit="10"
           x1="400.16599"
           y1="278.53201"
           x2="398.94501"
           y2="279.40399"
           id="svg_9" />
      </g>
    </g>
    <path
       style="fill:#ffffff"
       inkscape:connector-curvature="0"
       d="m 405.09443,175.49518 -2.00699,8.604 -1.01602,4.299 c -0.34598,1.431 -0.77499,2.83799 -1.15298,4.261 l -4.66202,17.029 0.01,-0.042 c -1.11401,6.14801 -2.19,12.306 -3.22601,18.468 -1.03098,6.16299 -2.03299,12.332 -2.904,18.51401 -0.42398,3.08899 -0.341,6.18899 -0.565,9.27598 -0.10897,1.52201 0.44502,3.09002 0.44502,4.65502 v 4.688 l -0.50299,4.68799 -0.409,4.68899 -0.47702,9.37702 -0.41299,-9.37702 0.32101,-4.68899 0.47998,-4.68799 v -4.688 c 0,-1.56002 -0.55899,-3.123 -0.44699,-4.72101 0.229,-3.149 0.39899,-6.24699 0.824,-9.351 0.874,-6.199 1.749,-12.373 2.78101,-18.541 1.03598,-6.168 1.91199,-12.326 3.02799,-18.481 l -0.185,-0.023 v -0.021 l 4.79599,-17.03 c 0.39901,-1.416 0.81201,-2.84601 1.24499,-4.25301 l 1.34802,-4.216 2.689,-8.427 z"
       id="svg_10" />
    <g
       style="fill:none"
       transform="translate(11.016432,8.4741784)"
       id="svg_11">
      <g
         style="fill:none"
         id="svg_12">
        <path
           style="fill:none;stroke:#e6e6e6;stroke-width:0.75;stroke-miterlimit:10"
           inkscape:connector-curvature="0"
           stroke-miterlimit="10"
           d="m 389.01401,519.24701 c -0.20801,0.15301 -0.66699,0.37201 -1.34699,0.646"
           id="svg_13" />
        <line
           style="fill:none;stroke:#e6e6e6;stroke-width:0.75;stroke-miterlimit:10;stroke-dasharray:0.01, 0"
           stroke-miterlimit="10"
           x1="386.741"
           y1="520.25299"
           x2="386.73401"
           y2="520.25598"
           id="svg_14" />
        <path
           style="fill:none;stroke:#e6e6e6;stroke-width:0.75;stroke-miterlimit:10;stroke-dasharray:3.014, 0.9946, 0.01, 0"
           inkscape:connector-curvature="0"
           stroke-miterlimit="10"
           d="m 386.73401,520.25598 c -10.76499,4.02899 -54.37201,16.41797 -63.09699,18.35401 -9.695,2.15399 -61.38702,8.59399 -71.08101,9.67297 -9.69399,1.073 -75.38999,3.96002 -80.774,6.28802 -4.33101,1.87 -14.57901,0.73102 -18.42201,0.21497"
           id="svg_15" />
        <path
           style="fill:none;stroke:#e6e6e6;stroke-width:0.75;stroke-miterlimit:10"
           inkscape:connector-curvature="0"
           stroke-miterlimit="10"
           d="m 153.352,554.784 c -0.929,-0.12598 -1.48098,-0.21399 -1.48098,-0.21399"
           id="svg_16" />
      </g>
    </g>
    <g
       style="fill:none"
       transform="translate(11.016432,8.4741784)"
       id="svg_17">
      <g
         style="fill:none"
         id="svg_18">
        <line
           style="fill:none;stroke:#e6e6e6;stroke-width:0.75;stroke-miterlimit:10"
           stroke-miterlimit="10"
           x1="69.855003"
           y1="238.071"
           x2="71.207001"
           y2="238.72"
           id="svg_19" />
        <line
           style="fill:none;stroke:#e6e6e6;stroke-width:0.75;stroke-miterlimit:10"
           stroke-miterlimit="10"
           x1="72.098999"
           y1="239.14799"
           x2="72.108002"
           y2="239.153"
           id="svg_20" />
        <polyline
           style="fill:none;stroke:#e6e6e6;stroke-width:0.75;stroke-miterlimit:10;stroke-dasharray:2.9985, 0.9895, 0, 0"
           stroke-miterlimit="10"
           points="     72.108,239.153 106.087,255.474 120.022,267.298    "
           id="svg_21" />
        <line
           style="fill:none;stroke:#e6e6e6;stroke-width:0.75;stroke-miterlimit:10"
           stroke-miterlimit="10"
           x1="120.022"
           y1="267.298"
           x2="121.166"
           y2="268.26901"
           id="svg_22" />
      </g>
    </g>
    <path
       style="fill:#ffffff"
       inkscape:connector-curvature="0"
       d="m 209.04843,160.77118 c -1.036,4.16999 -1.567,8.455 -1.717,12.73401 -0.138,4.27999 0.166,8.57798 1.068,12.74398 0.852,4.16701 2.318,8.23101 4.589,11.82601 2.21899,3.642 5.39,6.563 8.83299,9.076 6.942,4.978 14.90601,8.474 23.12601,10.78701 4.121,1.13899 8.33701,1.95098 12.592,2.31098 2.12699,0.17501 4.264,0.23501 6.393,0.14601 2.133,-0.111 4.27901,-0.266 6.41301,-0.44799 8.54099,-0.74102 17.06,-2.00402 25.31198,-4.30901 4.121,-1.155 8.168,-2.57899 12.05002,-4.366 1.94199,-0.891 3.83398,-1.886 5.66898,-2.977 1.82202,-1.093 3.557,-2.345 5.216,-3.68601 3.31702,-2.68798 6.33502,-5.74398 9.10501,-9 2.76999,-3.25999 5.28699,-6.737 7.49701,-10.39399 2.21799,-3.637 4.27798,-7.45501 5.09698,-11.66899 0.917,-4.17402 1.39701,-8.49102 1.01902,-12.77501 0.50399,4.274 0.152,8.621 -0.64902,12.852 -0.70499,4.293 -2.68799,8.25 -4.819,11.98 -2.224,3.707 -4.78,7.19999 -7.56799,10.49499 -2.797,3.28801 -5.844,6.373 -9.20701,9.09902 -1.68298,1.35798 -3.44101,2.62799 -5.30398,3.74699 -1.85901,1.105 -3.776,2.112 -5.74002,3.013 -3.926,1.808 -8.01099,3.244 -12.164,4.409 -8.314,2.321 -16.87598,3.589 -25.44898,4.33301 -2.147,0.18299 -4.28902,0.33699 -6.44601,0.44999 -2.166,0.091 -4.333,0.03 -6.487,-0.147 -4.31101,-0.364 -8.571,-1.185 -12.73101,-2.33501 -8.3,-2.33799 -16.32499,-5.85599 -23.369,-10.90399 -3.47899,-2.533 -6.75799,-5.55701 -9.028,-9.285 -2.31698,-3.687 -3.83899,-7.832 -4.69299,-12.077 -0.80701,-4.263 -0.97,-8.61301 -0.707,-12.91299 0.278,-4.30001 0.93899,-8.57701 2.099,-12.71701 z"
       id="svg_23" />
  </g>
  <g
     id="g4214"
     transform="matrix(0.66636456,0,0,0.66636456,-302.20895,310.54832)">
    <g
       id="g4271">
      <path
         id="svg_94"
         d="m 716.93641,152.76318 c -7.10101,3.42999 -10.45099,5.173 -12.93499,6 -2.48401,0.829 -12.67798,7.969 -15.16102,7.969 -2.48401,0 -12.54602,9.77999 -24.138,14.747 -11.58996,4.96801 -31.52398,4.888 -40.63202,18.965 -9.10497,14.073 -31.49096,65.36401 -36.45898,76.95401 -4.96698,11.59 -15.74597,32.26801 -15.74597,32.26801 l -4.14801,17.37698 c 0,0 25.65802,15.72302 32.281,18.20901 6.62098,2.48499 37.93799,13.23999 37.93799,13.23999 l 3.57898,-14.074 v -3.31299 c 0,0 6.974,-15.73001 9.45801,-19.039 2.48401,-3.31399 3.48901,21.52301 6.79999,36.426 3.31103,14.89999 6.711,46.363 6.711,51.328 0,4.96799 -8.23297,65.40399 -7.40699,70.36798 0.82898,4.96902 -8.255,70.37299 -6.60101,81.133 1.65705,10.76403 57.13703,13.25 91.078,14.078 33.94501,0.823 97.69605,0.78698 121.706,-3.33197 24.00702,-4.12103 29.80603,-4.948 29.80603,-4.948 0,0 -9.34503,-75.935 -14.31201,-91.66501 -4.96698,-15.729 -4.56501,-32.27902 -5.39301,-42.21402 -0.83002,-9.93399 -3.84601,-72.28 -3.84601,-81.793 0,-9.51599 0,-20.27698 0,-20.27698 l 7.22303,5.008 5.26898,14.86099 c 0,0 25.73498,-4.96499 39.81,-9.935 14.07202,-4.966 30.69903,-13.246 30.69903,-13.246 v -16.55401 l -6.95599,-16.56 c 0,0 -9.68701,-30.631 -13.823,-40.565 -4.14502,-9.93599 -16.43799,-46.36 -23.06103,-49.672 -6.625,-3.313 -4.73298,-19.61301 -53.86902,-35.80701 -31.28095,-10.30899 -41.86896,-23.59399 -41.24598,-15.93599 0.93799,11.56501 -1.02301,9.64099 -14.77996,17.73301 -14.073,8.276 -22.19501,8.64299 -55.56501,4.70599 -34.86499,-4.11499 -19.17804,-25.87399 -26.28003,-22.43999 z"
         stroke-miterlimit="10"
         inkscape:connector-curvature="0"
         style="fill:#000000;stroke:#e6e6e6;stroke-miterlimit:10" />
      <path
         id="svg_95"
         d="m 657.12141,315.44119 c -0.15997,-4.57599 -0.017,-9.159 0.006,-13.729 0.13902,-4.56501 0.19999,-9.13501 -0.17098,-13.67301 -0.37402,-4.52899 -1.15802,-9.048 -2.80603,-13.27798 -1.63202,-4.22501 -4.41296,-7.888 -7.29797,-11.41501 -2.89203,-3.522 -5.76801,-7.202 -7.76502,-11.366 -2.07,-4.116 -3.71197,-8.41299 -5.17102,-12.759 -1.45996,-4.347 -2.72296,-8.75099 -3.96197,-13.15601 -1.12,-4.43799 -2.20099,-8.88099 -3.46399,-13.28 1.49701,4.32502 2.81695,8.71201 4.17499,13.08101 1.23602,4.401 2.49701,8.795 3.95001,13.121 1.45099,4.323 3.08496,8.597 5.12799,12.657 1.974,4.11299 4.78101,7.70301 7.68298,11.239 2.88703,3.53099 5.73102,7.261 7.41199,11.618 1.67999,4.30999 2.47601,8.906 2.85303,13.479 0.375,4.58499 0.31097,9.17999 0.17596,13.75601 -0.25995,4.57199 -0.59796,9.12998 -0.74597,13.70499 z"
         inkscape:connector-curvature="0"
         style="fill:#ffffff" />
      <path
         id="svg_96"
         d="m 907.97145,214.43918 c -2.79602,3.583 -5.31897,7.354 -7.53998,11.292 -2.35803,3.85399 -4.44,7.876 -6.31,11.995 -3.73504,8.244 -6.61902,16.85899 -9.07202,25.58099 -2.45001,8.72801 -4.46503,17.57799 -6.38098,26.45 l -2.84399,13.32101 c -1.11402,4.40601 -2.211,8.81699 -3.45301,13.189 0.85401,-4.46399 1.70197,-8.92301 2.49201,-13.396 l 2.84399,-13.32199 c 1.91699,-8.879 3.93597,-17.74902 6.39496,-26.50801 2.46301,-8.754 5.36004,-17.41501 9.125,-25.722 1.88104,-4.151 3.98504,-8.20599 6.36102,-12.103 2.51398,-3.809 5.27399,-7.459 8.383,-10.77701 z"
         inkscape:connector-curvature="0"
         style="fill:#ffffff" />
      <path
         style="fill:#ffffff"
         inkscape:connector-curvature="0"
         d="m 767.16542,191.16218 c -9.35797,0 -19.12799,-1.046 -28.19001,-3.223 -16.70196,-4.013 -28.83099,-11.29399 -34.15301,-20.50299 l 0.62604,-0.373 c 5.22296,9.03299 17.18799,16.19299 33.69501,20.15899 23.89794,5.741 52.71899,3.59 65.61798,-4.899 7.46795,-4.91 12.78296,-10.545 16.72998,-17.735 l 0.63501,0.35901 c -4.00702,7.29899 -9.39801,13.017 -16.97004,17.99499 -8.13293,5.351 -22.49493,8.22 -37.99096,8.22 z"
         id="svg_98" />
      <path
         id="svg_99"
         d="m 640.5644,341.10519 c -20.43798,5.19501 -50.33502,-15.294 -66.229,-25.66501"
         stroke-miterlimit="10"
         inkscape:connector-curvature="0"
         style="fill:#000000;stroke:#e6e6e6;stroke-width:0.75;stroke-miterlimit:10;stroke-dasharray:3, 1, 0, 0" />
      <path
         id="svg_100"
         d="m 880.65242,338.62219 c 21.92199,-4.31201 51.97802,-11.67801 67.88501,-26.491"
         stroke-miterlimit="10"
         inkscape:connector-curvature="0"
         style="fill:#000000;stroke:#e6e6e6;stroke-width:0.75;stroke-miterlimit:10;stroke-dasharray:3, 1, 0, 0" />
      <path
         id="svg_101"
         d="m 650.25941,551.39117 c 56.06097,17.41101 131.64697,14.79102 192.78699,13.245 15.49902,-0.39099 33.54803,-4.62097 47.39899,-9.10602"
         stroke-miterlimit="10"
         inkscape:connector-curvature="0"
         style="fill:#000000;stroke:#e6e6e6;stroke-width:0.75;stroke-miterlimit:10;stroke-dasharray:3, 1, 0, 0" />
    </g>
    <g
       id="g4287"
       transform="matrix(-1,0,0,1,1954.3882,0)">
      <path
         style="fill:#000000;stroke:#e6e6e6;stroke-miterlimit:10"
         inkscape:connector-curvature="0"
         stroke-miterlimit="10"
         d="m 716.93641,152.76318 c -7.10101,3.42999 -10.45099,5.173 -12.93499,6 -2.48401,0.829 -12.67798,7.969 -15.16102,7.969 -2.48401,0 -12.54602,9.77999 -24.138,14.747 -11.58996,4.96801 -31.52398,4.888 -40.63202,18.965 -9.10497,14.073 -31.49096,65.36401 -36.45898,76.95401 -4.96698,11.59 -15.74597,32.26801 -15.74597,32.26801 l -4.14801,17.37698 c 0,0 25.65802,15.72302 32.281,18.20901 6.62098,2.48499 37.93799,13.23999 37.93799,13.23999 l 3.57898,-14.074 v -3.31299 c 0,0 6.974,-15.73001 9.45801,-19.039 2.48401,-3.31399 3.48901,21.52301 6.79999,36.426 3.31103,14.89999 6.711,46.363 6.711,51.328 0,4.96799 -8.23297,65.40399 -7.40699,70.36798 0.82898,4.96902 -8.255,70.37299 -6.60101,81.133 1.65705,10.76403 57.13703,13.25 91.078,14.078 33.94501,0.823 97.69605,0.78698 121.706,-3.33197 24.00702,-4.12103 29.80603,-4.948 29.80603,-4.948 0,0 -9.34503,-75.935 -14.31201,-91.66501 -4.96698,-15.729 -4.56501,-32.27902 -5.39301,-42.21402 -0.83002,-9.93399 -3.84601,-72.28 -3.84601,-81.793 0,-9.51599 0,-20.27698 0,-20.27698 l 7.22303,5.008 5.26898,14.86099 c 0,0 25.73498,-4.96499 39.81,-9.935 14.07202,-4.966 30.69903,-13.246 30.69903,-13.246 v -16.55401 l -6.95599,-16.56 c 0,0 -9.68701,-30.631 -13.823,-40.565 -4.14502,-9.93599 -16.43799,-46.36 -23.06103,-49.672 -6.625,-3.313 -4.73298,-19.61301 -53.86902,-35.80701 -31.28095,-10.30899 -41.86896,-23.59399 -41.24598,-15.93599 0.93799,11.56501 -1.02301,9.64099 -14.77996,17.73301 -14.073,8.276 -22.19501,8.64299 -55.56501,4.70599 -34.86499,-4.11499 -19.17804,-25.87399 -26.28003,-22.43999 z"
         id="path4273" />
      <path
         style="fill:#ffffff"
         inkscape:connector-curvature="0"
         d="m 657.12141,315.44119 c -0.15997,-4.57599 -0.017,-9.159 0.006,-13.729 0.13902,-4.56501 0.19999,-9.13501 -0.17098,-13.67301 -0.37402,-4.52899 -1.15802,-9.048 -2.80603,-13.27798 -1.63202,-4.22501 -4.41296,-7.888 -7.29797,-11.41501 -2.89203,-3.522 -5.76801,-7.202 -7.76502,-11.366 -2.07,-4.116 -3.71197,-8.41299 -5.17102,-12.759 -1.45996,-4.347 -2.72296,-8.75099 -3.96197,-13.15601 -1.12,-4.43799 -2.20099,-8.88099 -3.46399,-13.28 1.49701,4.32502 2.81695,8.71201 4.17499,13.08101 1.23602,4.401 2.49701,8.795 3.95001,13.121 1.45099,4.323 3.08496,8.597 5.12799,12.657 1.974,4.11299 4.78101,7.70301 7.68298,11.239 2.88703,3.53099 5.73102,7.261 7.41199,11.618 1.67999,4.30999 2.47601,8.906 2.85303,13.479 0.375,4.58499 0.31097,9.17999 0.17596,13.75601 -0.25995,4.57199 -0.59796,9.12998 -0.74597,13.70499 z"
         id="path4275" />
      <path
         style="fill:#ffffff"
         inkscape:connector-curvature="0"
         d="m 907.97145,214.43918 c -2.79602,3.583 -5.31897,7.354 -7.53998,11.292 -2.35803,3.85399 -4.44,7.876 -6.31,11.995 -3.73504,8.244 -6.61902,16.85899 -9.07202,25.58099 -2.45001,8.72801 -4.46503,17.57799 -6.38098,26.45 l -2.84399,13.32101 c -1.11402,4.40601 -2.211,8.81699 -3.45301,13.189 0.85401,-4.46399 1.70197,-8.92301 2.49201,-13.396 l 2.84399,-13.32199 c 1.91699,-8.879 3.93597,-17.74902 6.39496,-26.50801 2.46301,-8.754 5.36004,-17.41501 9.125,-25.722 1.88104,-4.151 3.98504,-8.20599 6.36102,-12.103 2.51398,-3.809 5.27399,-7.459 8.383,-10.77701 z"
         id="path4277" />
      <path
         id="path4279"
         d="m 767.16542,191.16218 c -9.35797,0 -19.12799,-1.046 -28.19001,-3.223 -16.70196,-4.013 -28.83099,-11.29399 -34.15301,-20.50299 l 0.62604,-0.373 c 5.22296,9.03299 17.18799,16.19299 33.69501,20.15899 23.89794,5.741 52.71899,3.59 65.61798,-4.899 7.46795,-4.91 12.78296,-10.545 16.72998,-17.735 l 0.63501,0.35901 c -4.00702,7.29899 -9.39801,13.017 -16.97004,17.99499 -8.13293,5.351 -22.49493,8.22 -37.99096,8.22 z"
         inkscape:connector-curvature="0"
         style="fill:#ffffff" />
      <path
         style="fill:#000000;stroke:#e6e6e6;stroke-width:0.75;stroke-miterlimit:10;stroke-dasharray:3, 1, 0, 0"
         inkscape:connector-curvature="0"
         stroke-miterlimit="10"
         d="m 640.5644,341.10519 c -20.43798,5.19501 -50.33502,-15.294 -66.229,-25.66501"
         id="path4281" />
      <path
         style="fill:#000000;stroke:#e6e6e6;stroke-width:0.75;stroke-miterlimit:10;stroke-dasharray:3, 1, 0, 0"
         inkscape:connector-curvature="0"
         stroke-miterlimit="10"
         d="m 880.65242,338.62219 c 21.92199,-4.31201 51.97802,-11.67801 67.88501,-26.491"
         id="path4283" />
      <path
         style="fill:#000000;stroke:#e6e6e6;stroke-width:0.75;stroke-miterlimit:10;stroke-dasharray:3, 1, 0, 0"
         inkscape:connector-curvature="0"
         stroke-miterlimit="10"
         d="m 650.25941,551.39117 c 56.06097,17.41101 131.64697,14.79102 192.78699,13.245 15.49902,-0.39099 33.54803,-4.62097 47.39899,-9.10602"
         id="path4285" />
    </g>
  </g>
  <g
     transform="matrix(-0.66636456,0,0,0.66636456,675.81762,-15.761542)"
     id="g4260">
    <path
       id="path4216"
       d="m 222.64943,152.52018 c 0,0 -15.439,27.653 0,40.21502 15.76001,12.82799 29.11399,15.571 53.84799,14.002 22.61801,-1.43502 35.15399,-9.513 44.155,-22.61702 3.48001,-5.067 9.69201,-12.924 6.46399,-26.92299 0,0 8.61401,4.308 19.38501,5.38499 10.77002,1.077 44.15899,1.077 57.078,9.692 12.923,8.61499 29.07999,22.37101 40.92401,36.49401 11.84799,14.123 34.466,42.12399 34.466,42.12399 0,0 -50.62002,40.927 -54.92602,44.15701 -4.30899,3.23001 -23.694,-16.156 -26.926,-17.23199 -3.22998,-1.07501 -18.30899,15.195 -18.30899,22.67499 0,7.48199 2.155,22.55898 -3.229,29.02001 -5.38501,6.46198 -12.926,20.98398 -12.926,30.956 0,9.97 10.76801,56.28097 14.00199,63.81799 3.229,7.54001 3.229,28.00601 6.461,34.46399 3.23102,6.46201 15.07602,54.97101 18.311,59.28101 3.22702,4.30603 6.46002,24.50396 6.46002,24.50396 0,0 -7.54,4.57404 -21.54,9.95801 -23.176,8.91303 -71.86701,14.73999 -110.931,20.23004 -37.336,5.25 -106.618,13.10999 -109.851,3.41596 -3.23101,-9.69098 -5.385,-37.69098 -7.538,-53.84497 -4.98199,-37.34802 -2.02099,-87.60401 0,-77.54801 -2.155,-10.76898 -6.462,-43.07699 -6.462,-57.07598 0,-14.00101 9.69301,-32.31003 0,-38.77201 -9.692,-6.46301 -12.924,-39.73099 -8.616,-48.406 4.308,-8.67301 -20.461,-14.05701 -28,-19.443 -7.542,-5.384 -42.001997,-20.462 -42.001997,-20.462 0,0 25.847,-45.232 26.925003,-50.61901 1.075994,-5.38398 9.691994,-36.61599 44.154984,-38.77198 34.46202,-2.153 20.463,3.23199 34.46202,-2.153 14.004,-5.38402 44.15999,-16.52301 44.15999,-16.52301 z"
       stroke-miterlimit="10"
       inkscape:connector-curvature="0"
       style="fill:#000000;stroke:#e6e6e6;stroke-miterlimit:10" />
    <path
       id="path4218"
       d="m 137.08043,172.09218 c 1.041,4.917 1.958,9.85901 2.858,14.804 0.774,4.966 1.50599,9.938 2.169,14.91999 0.66201,4.98201 1.262,9.97501 1.74199,14.98101 0.472,5.00599 0.856,10.028 0.886,15.072 0.007,2.51599 -0.083,5.068 -0.47299,7.564 l -1.078,7.462 -2.29199,14.89499 c -0.76101,4.96401 -1.51001,9.92901 -2.16701,14.90401 -0.39,2.479 -0.757,4.961 -1.067,7.452 -0.296,2.48999 -0.584,4.988 -0.577,7.5 -0.133,-2.512 0.029,-5.03 0.201,-7.538 0.186,-2.509 0.428,-5.013 0.694,-7.51401 0.659,-4.984 1.409,-9.95401 2.17,-14.91899 l 2.292,-14.893 c 0.68699,-4.981 1.67601,-9.90801 1.543,-14.911 -0.03,-5.003 -0.41201,-10.011 -0.883,-15.003 -0.479,-4.99401 -1.078,-9.978 -1.739,-14.95301 -0.664,-4.97599 -1.39,-9.944 -2.169,-14.903 -0.659,-4.97699 -1.38,-9.94799 -2.11,-14.91999 z"
       inkscape:connector-curvature="0"
       style="fill:#ffffff" />
    <g
       id="g4230"
       transform="translate(11.016432,8.4741784)"
       style="fill:none">
      <g
         id="g4228"
         style="fill:none">
        <path
           id="path4220"
           d="m 459.138,231.541 c -0.41199,0.23801 -0.84399,0.492 -1.29401,0.75999"
           stroke-miterlimit="10"
           inkscape:connector-curvature="0"
           style="fill:none;stroke:#e6e6e6;stroke-width:0.75;stroke-miterlimit:10" />
        <line
           id="line4222"
           y2="232.82401"
           x2="456.97299"
           y1="232.82001"
           x1="456.98001"
           stroke-miterlimit="10"
           style="fill:none;stroke:#e6e6e6;stroke-width:0.75;stroke-miterlimit:10;stroke-dasharray:0.0102, 0" />
        <path
           id="path4224"
           d="m 456.97299,232.824 c -10.11899,6.11802 -27.789,18.21201 -27.789,18.21201 l -23.698,23.694 -5.32101,3.802"
           stroke-miterlimit="10"
           inkscape:connector-curvature="0"
           style="fill:none;stroke:#e6e6e6;stroke-width:0.75;stroke-miterlimit:10;stroke-dasharray:3.0532, 1.0076, 0.0102, 0" />
        <line
           id="line4226"
           y2="279.40399"
           x2="398.94501"
           y1="278.53201"
           x1="400.16599"
           stroke-miterlimit="10"
           style="fill:none;stroke:#e6e6e6;stroke-width:0.75;stroke-miterlimit:10" />
      </g>
    </g>
    <path
       id="path4232"
       d="m 405.09443,175.49518 -2.00699,8.604 -1.01602,4.299 c -0.34598,1.431 -0.77499,2.83799 -1.15298,4.261 l -4.66202,17.029 0.01,-0.042 c -1.11401,6.14801 -2.19,12.306 -3.22601,18.468 -1.03098,6.16299 -2.03299,12.332 -2.904,18.51401 -0.42398,3.08899 -0.341,6.18899 -0.565,9.27598 -0.10897,1.52201 0.44502,3.09002 0.44502,4.65502 v 4.688 l -0.50299,4.68799 -0.409,4.68899 -0.47702,9.37702 -0.41299,-9.37702 0.32101,-4.68899 0.47998,-4.68799 v -4.688 c 0,-1.56002 -0.55899,-3.123 -0.44699,-4.72101 0.229,-3.149 0.39899,-6.24699 0.824,-9.351 0.874,-6.199 1.749,-12.373 2.78101,-18.541 1.03598,-6.168 1.91199,-12.326 3.02799,-18.481 l -0.185,-0.023 v -0.021 l 4.79599,-17.03 c 0.39901,-1.416 0.81201,-2.84601 1.24499,-4.25301 l 1.34802,-4.216 2.689,-8.427 z"
       inkscape:connector-curvature="0"
       style="fill:#ffffff" />
    <g
       id="g4244"
       transform="translate(11.016432,8.4741784)"
       style="fill:none">
      <g
         id="g4242"
         style="fill:none">
        <path
           id="path4234"
           d="m 389.01401,519.24701 c -0.20801,0.15301 -0.66699,0.37201 -1.34699,0.646"
           stroke-miterlimit="10"
           inkscape:connector-curvature="0"
           style="fill:none;stroke:#e6e6e6;stroke-width:0.75;stroke-miterlimit:10" />
        <line
           id="line4236"
           y2="520.25598"
           x2="386.73401"
           y1="520.25299"
           x1="386.741"
           stroke-miterlimit="10"
           style="fill:none;stroke:#e6e6e6;stroke-width:0.75;stroke-miterlimit:10;stroke-dasharray:0.01, 0" />
        <path
           id="path4238"
           d="m 386.73401,520.25598 c -10.76499,4.02899 -54.37201,16.41797 -63.09699,18.35401 -9.695,2.15399 -61.38702,8.59399 -71.08101,9.67297 -9.69399,1.073 -75.38999,3.96002 -80.774,6.28802 -4.33101,1.87 -14.57901,0.73102 -18.42201,0.21497"
           stroke-miterlimit="10"
           inkscape:connector-curvature="0"
           style="fill:none;stroke:#e6e6e6;stroke-width:0.75;stroke-miterlimit:10;stroke-dasharray:3.014, 0.9946, 0.01, 0" />
        <path
           id="path4240"
           d="m 153.352,554.784 c -0.929,-0.12598 -1.48098,-0.21399 -1.48098,-0.21399"
           stroke-miterlimit="10"
           inkscape:connector-curvature="0"
           style="fill:none;stroke:#e6e6e6;stroke-width:0.75;stroke-miterlimit:10" />
      </g>
    </g>
    <g
       id="g4256"
       transform="translate(11.016432,8.4741784)"
       style="fill:none">
      <g
         id="g4254"
         style="fill:none">
        <line
           id="line4246"
           y2="238.72"
           x2="71.207001"
           y1="238.071"
           x1="69.855003"
           stroke-miterlimit="10"
           style="fill:none;stroke:#e6e6e6;stroke-width:0.75;stroke-miterlimit:10" />
        <line
           id="line4248"
           y2="239.153"
           x2="72.108002"
           y1="239.14799"
           x1="72.098999"
           stroke-miterlimit="10"
           style="fill:none;stroke:#e6e6e6;stroke-width:0.75;stroke-miterlimit:10" />
        <polyline
           id="polyline4250"
           points="     72.108,239.153 106.087,255.474 120.022,267.298    "
           stroke-miterlimit="10"
           style="fill:none;stroke:#e6e6e6;stroke-width:0.75;stroke-miterlimit:10;stroke-dasharray:2.9985, 0.9895, 0, 0" />
        <line
           id="line4252"
           y2="268.26901"
           x2="121.166"
           y1="267.298"
           x1="120.022"
           stroke-miterlimit="10"
           style="fill:none;stroke:#e6e6e6;stroke-width:0.75;stroke-miterlimit:10" />
      </g>
    </g>
    <path
       id="path4258"
       d="m 209.04843,160.77118 c -1.036,4.16999 -1.567,8.455 -1.717,12.73401 -0.138,4.27999 0.166,8.57798 1.068,12.74398 0.852,4.16701 2.318,8.23101 4.589,11.82601 2.21899,3.642 5.39,6.563 8.83299,9.076 6.942,4.978 14.90601,8.474 23.12601,10.78701 4.121,1.13899 8.33701,1.95098 12.592,2.31098 2.12699,0.17501 4.264,0.23501 6.393,0.14601 2.133,-0.111 4.27901,-0.266 6.41301,-0.44799 8.54099,-0.74102 17.06,-2.00402 25.31198,-4.30901 4.121,-1.155 8.168,-2.57899 12.05002,-4.366 1.94199,-0.891 3.83398,-1.886 5.66898,-2.977 1.82202,-1.093 3.557,-2.345 5.216,-3.68601 3.31702,-2.68798 6.33502,-5.74398 9.10501,-9 2.76999,-3.25999 5.28699,-6.737 7.49701,-10.39399 2.21799,-3.637 4.27798,-7.45501 5.09698,-11.66899 0.917,-4.17402 1.39701,-8.49102 1.01902,-12.77501 0.50399,4.274 0.152,8.621 -0.64902,12.852 -0.70499,4.293 -2.68799,8.25 -4.819,11.98 -2.224,3.707 -4.78,7.19999 -7.56799,10.49499 -2.797,3.28801 -5.844,6.373 -9.20701,9.09902 -1.68298,1.35798 -3.44101,2.62799 -5.30398,3.74699 -1.85901,1.105 -3.776,2.112 -5.74002,3.013 -3.926,1.808 -8.01099,3.244 -12.164,4.409 -8.314,2.321 -16.87598,3.589 -25.44898,4.33301 -2.147,0.18299 -4.28902,0.33699 -6.44601,0.44999 -2.166,0.091 -4.333,0.03 -6.487,-0.147 -4.31101,-0.364 -8.571,-1.185 -12.73101,-2.33501 -8.3,-2.33799 -16.32499,-5.85599 -23.369,-10.90399 -3.47899,-2.533 -6.75799,-5.55701 -9.028,-9.285 -2.31698,-3.687 -3.83899,-7.832 -4.69299,-12.077 -0.80701,-4.263 -0.97,-8.61301 -0.707,-12.91299 0.278,-4.30001 0.93899,-8.57701 2.099,-12.71701 z"
       inkscape:connector-curvature="0"
       style="fill:#ffffff" />
  </g>
</svg>
